"","ARTHRTS","CANCER","KIDNEY","COPD","CHD","CASTHMA","DIABETES","BPHIGH","HIGHCHOL","STROKE","CSMOKE","OBESITY","NHB","AGE65","CPROB1","CPROB2","CPROB3","COM","MODZCTA"
"1",0.389,0.235,0.15,0.194,0.203,0.285,0.259,0.461,0.521,0.143,0.333,0.391,0.272,0.296,1,0,0,1,10001
"2",0.439,0.235,0.195,0.25,0.267,0.292,0.38,0.547,0.59,0.199,0.421,0.412,0.259,0.365,0,0,1,3,10002
"3",0.349,0.218,0.129,0.169,0.168,0.288,0.21,0.403,0.479,0.118,0.319,0.359,0.19,0.277,1,0,0,1,10003
"4",0.271,0.169,0.104,0.129,0.117,0.277,0.161,0.329,0.412,0.087,0.295,0.338,0.141,0.162,1,0,0,1,10004
"5",0.249,0.153,0.099,0.126,0.104,0.281,0.146,0.307,0.388,0.082,0.306,0.337,0.158,0.128,1,0,0,1,10005
"6",0.245,0.155,0.095,0.114,0.1,0.272,0.141,0.303,0.389,0.077,0.276,0.329,0.112,0.045,1,0,0,1,10006
"7",0.332,0.195,0.133,0.169,0.172,0.279,0.238,0.408,0.481,0.128,0.339,0.358,0.203,0.253,1,0,0,1,10007
"8",0.402,0.23,0.165,0.214,0.216,0.297,0.297,0.48,0.534,0.159,0.372,0.419,0.289,0.31,0,0,1,3,10009
"9",0.371,0.231,0.139,0.179,0.182,0.287,0.23,0.43,0.5,0.128,0.32,0.369,0.207,0.307,1,0,0,1,10010
"10",0.382,0.238,0.141,0.182,0.19,0.284,0.236,0.442,0.516,0.13,0.323,0.384,0.236,0.301,1,0,0,1,10011
"11",0.371,0.229,0.142,0.181,0.19,0.282,0.248,0.439,0.515,0.133,0.329,0.36,0.152,0.309,1,0,0,1,10012
"12",0.373,0.221,0.148,0.188,0.199,0.28,0.272,0.454,0.525,0.144,0.349,0.364,0.194,0.314,1,0,0,1,10013
"13",0.378,0.239,0.136,0.174,0.182,0.284,0.223,0.431,0.509,0.125,0.311,0.377,0.156,0.311,1,0,0,1,10014
"14",0.358,0.223,0.135,0.172,0.174,0.286,0.223,0.417,0.491,0.123,0.316,0.362,0.202,0.316,1,0,0,1,10016
"15",0.38,0.246,0.136,0.17,0.182,0.278,0.225,0.433,0.512,0.125,0.292,0.356,0.127,0.362,1,0,0,1,10017
"16",0.311,0.184,0.123,0.154,0.147,0.278,0.207,0.385,0.459,0.107,0.329,0.369,0.25,0.179,1,0,0,1,10018
"17",0.376,0.232,0.144,0.18,0.19,0.281,0.247,0.445,0.513,0.134,0.324,0.38,0.238,0.319,1,0,0,1,10019
"18",0.417,0.274,0.146,0.184,0.201,0.283,0.236,0.461,0.536,0.137,0.289,0.367,0.117,0.37,1,0,0,1,10021
"19",0.422,0.278,0.149,0.186,0.209,0.28,0.243,0.471,0.544,0.139,0.285,0.363,0.132,0.399,1,0,0,1,10022
"20",0.407,0.261,0.146,0.183,0.198,0.283,0.242,0.46,0.532,0.136,0.3,0.374,0.184,0.349,1,0,0,1,10023
"21",0.414,0.257,0.152,0.193,0.205,0.288,0.257,0.473,0.538,0.143,0.313,0.388,0.234,0.344,1,0,0,1,10024
"22",0.421,0.252,0.163,0.209,0.218,0.296,0.285,0.492,0.543,0.157,0.337,0.408,0.307,0.351,0,0,1,3,10025
"23",0.417,0.22,0.173,0.224,0.216,0.322,0.32,0.533,0.529,0.176,0.407,0.478,0.667,0.266,0,0.001,0.999,3,10026
"24",0.399,0.213,0.167,0.218,0.21,0.32,0.303,0.505,0.51,0.169,0.393,0.456,0.613,0.258,0,0,1,3,10027
"25",0.418,0.273,0.146,0.185,0.199,0.284,0.236,0.461,0.538,0.136,0.289,0.368,0.106,0.364,1,0,0,1,10028
"26",0.429,0.224,0.19,0.244,0.244,0.314,0.353,0.536,0.553,0.188,0.42,0.484,0.497,0.284,0,0.388,0.612,3,10029
"27",0.434,0.215,0.184,0.247,0.229,0.339,0.344,0.566,0.533,0.196,0.443,0.514,0.74,0.245,0,1,0,2,10030
"28",0.422,0.217,0.186,0.238,0.235,0.317,0.347,0.536,0.546,0.185,0.421,0.492,0.523,0.269,0,0.347,0.653,3,10031
"29",0.421,0.222,0.186,0.233,0.239,0.308,0.35,0.525,0.555,0.18,0.408,0.48,0.388,0.293,0,0,1,3,10032
"30",0.409,0.225,0.177,0.221,0.229,0.298,0.329,0.496,0.55,0.163,0.387,0.456,0.215,0.302,0,0,1,3,10033
"31",0.421,0.226,0.181,0.231,0.234,0.301,0.338,0.509,0.557,0.171,0.401,0.472,0.229,0.294,0,0,1,3,10034
"32",0.445,0.22,0.202,0.268,0.261,0.327,0.378,0.566,0.562,0.207,0.46,0.52,0.593,0.281,0,1,0,2,10035
"33",0.359,0.214,0.141,0.181,0.186,0.279,0.246,0.437,0.502,0.131,0.335,0.386,0.253,0.259,1,0,0,1,10036
"34",0.461,0.235,0.194,0.253,0.244,0.338,0.362,0.592,0.55,0.208,0.427,0.515,0.794,0.283,0,1,0,2,10037
"35",0.388,0.213,0.17,0.22,0.233,0.284,0.329,0.487,0.538,0.175,0.387,0.365,0.239,0.328,0,0,1,3,10038
"36",0.453,0.226,0.194,0.258,0.241,0.342,0.362,0.581,0.545,0.207,0.443,0.52,0.765,0.262,0,1,0,2,10039
"37",0.423,0.233,0.184,0.229,0.24,0.299,0.341,0.511,0.56,0.172,0.39,0.466,0.23,0.305,0,0,1,3,10040
"38",0.415,0.249,0.159,0.202,0.217,0.289,0.289,0.503,0.547,0.158,0.336,0.402,0.353,0.352,0,0,1,3,10044
"39",0.423,0.279,0.149,0.186,0.206,0.281,0.24,0.469,0.542,0.14,0.287,0.365,0.147,0.392,1,0,0,1,10065
"40",0.428,0.27,0.158,0.196,0.211,0.286,0.265,0.486,0.55,0.149,0.313,0.387,0.238,0.369,0.915,0,0.085,1,10069
"41",0.417,0.271,0.147,0.186,0.2,0.286,0.237,0.461,0.537,0.137,0.294,0.371,0.096,0.352,1,0,0,1,10075
"42",0.397,0.254,0.143,0.181,0.19,0.286,0.237,0.448,0.523,0.132,0.302,0.374,0.205,0.334,1,0,0,1,10128
"43",0.342,0.218,0.126,0.15,0.156,0.273,0.203,0.398,0.486,0.11,0.294,0.358,0.115,0.225,1,0,0,1,10280
"44",0.341,0.217,0.126,0.152,0.155,0.276,0.195,0.392,0.476,0.11,0.303,0.362,0.101,0.188,1,0,0,1,10282
"45",0.488,0.246,0.171,0.244,0.235,0.311,0.33,0.542,0.568,0.172,0.419,0.546,0.462,0.307,0,0.004,0.996,3,10301
"46",0.48,0.238,0.17,0.243,0.23,0.311,0.327,0.532,0.561,0.169,0.433,0.556,0.374,0.289,0,0.001,0.999,3,10302
"47",0.466,0.218,0.172,0.242,0.223,0.319,0.339,0.537,0.551,0.17,0.448,0.574,0.507,0.255,0,0.897,0.103,2,10303
"48",0.494,0.248,0.176,0.251,0.241,0.314,0.34,0.55,0.572,0.177,0.428,0.545,0.447,0.327,0,0.312,0.688,3,10304
"49",0.5,0.255,0.17,0.256,0.241,0.308,0.32,0.533,0.578,0.17,0.431,0.526,0.243,0.314,0,0,1,3,10305
"50",0.514,0.269,0.168,0.256,0.243,0.307,0.312,0.536,0.584,0.169,0.42,0.52,0.16,0.341,0,0,1,3,10306
"51",0.483,0.249,0.154,0.238,0.216,0.307,0.282,0.501,0.561,0.151,0.422,0.517,0.079,0.271,0,0,1,3,10307
"52",0.504,0.266,0.161,0.245,0.231,0.305,0.296,0.522,0.578,0.159,0.413,0.514,0.089,0.337,0,0,1,3,10308
"53",0.481,0.248,0.153,0.235,0.216,0.304,0.284,0.502,0.56,0.151,0.419,0.516,0.076,0.291,0,0,1,3,10309
"54",0.491,0.249,0.17,0.243,0.231,0.31,0.322,0.535,0.568,0.168,0.417,0.544,0.374,0.306,0,0,1,3,10310
"55",0.5,0.261,0.16,0.244,0.229,0.305,0.297,0.519,0.575,0.158,0.416,0.514,0.09,0.334,0,0,1,3,10312
"56",0.499,0.261,0.165,0.242,0.235,0.301,0.315,0.53,0.579,0.164,0.407,0.51,0.204,0.335,0,0,1,3,10314
"57",0.47,0.217,0.205,0.269,0.262,0.341,0.391,0.605,0.579,0.206,0.443,0.599,0.583,0.273,0,1,0,2,10451
"58",0.447,0.199,0.196,0.259,0.247,0.338,0.377,0.583,0.567,0.193,0.452,0.602,0.522,0.222,0,1,0,2,10452
"59",0.448,0.197,0.197,0.262,0.248,0.34,0.379,0.584,0.566,0.195,0.457,0.606,0.513,0.227,0,1,0,2,10453
"60",0.461,0.205,0.209,0.278,0.268,0.342,0.397,0.592,0.579,0.206,0.467,0.609,0.511,0.238,0,1,0,2,10454
"61",0.447,0.201,0.199,0.262,0.254,0.336,0.381,0.58,0.569,0.195,0.454,0.601,0.536,0.237,0,1,0,2,10455
"62",0.462,0.205,0.202,0.273,0.257,0.347,0.387,0.601,0.571,0.206,0.464,0.61,0.589,0.24,0,1,0,2,10456
"63",0.452,0.202,0.199,0.268,0.253,0.342,0.38,0.587,0.568,0.198,0.46,0.603,0.546,0.235,0,1,0,2,10457
"64",0.429,0.196,0.186,0.252,0.238,0.332,0.352,0.555,0.553,0.181,0.446,0.577,0.423,0.228,0,1,0,2,10458
"65",0.453,0.204,0.199,0.262,0.254,0.339,0.382,0.587,0.57,0.196,0.449,0.599,0.535,0.253,0,1,0,2,10459
"66",0.457,0.206,0.201,0.268,0.257,0.341,0.382,0.588,0.572,0.198,0.454,0.6,0.512,0.263,0,1,0,2,10460
"67",0.464,0.247,0.176,0.249,0.247,0.311,0.319,0.553,0.574,0.175,0.392,0.507,0.282,0.324,0,0,1,3,10461
"68",0.448,0.222,0.18,0.242,0.237,0.321,0.34,0.564,0.564,0.178,0.408,0.543,0.475,0.28,0,0.91,0.09,2,10462
"69",0.472,0.261,0.181,0.236,0.247,0.309,0.327,0.565,0.579,0.177,0.361,0.503,0.37,0.353,0,0,1,3,10463
"70",0.492,0.267,0.174,0.247,0.245,0.319,0.314,0.582,0.586,0.176,0.373,0.512,0.469,0.371,0,0.002,0.998,3,10464
"71",0.473,0.252,0.177,0.251,0.247,0.316,0.32,0.557,0.577,0.176,0.389,0.516,0.324,0.333,0,0,1,3,10465
"72",0.476,0.225,0.188,0.254,0.24,0.353,0.361,0.618,0.56,0.199,0.425,0.582,0.829,0.284,0,1,0,2,10466
"73",0.459,0.217,0.19,0.258,0.248,0.336,0.361,0.587,0.567,0.194,0.436,0.574,0.57,0.274,0,1,0,2,10467
"74",0.439,0.206,0.189,0.246,0.242,0.325,0.36,0.564,0.564,0.183,0.425,0.571,0.409,0.25,0,1,0,2,10468
"75",0.48,0.238,0.188,0.253,0.248,0.341,0.356,0.61,0.569,0.197,0.408,0.563,0.724,0.311,0,1,0,2,10469
"76",0.469,0.234,0.179,0.255,0.239,0.342,0.333,0.585,0.561,0.187,0.426,0.55,0.637,0.313,0,1,0,2,10470
"77",0.483,0.283,0.172,0.23,0.246,0.303,0.294,0.557,0.58,0.169,0.325,0.465,0.274,0.386,0,0,1,3,10471
"78",0.456,0.208,0.2,0.267,0.26,0.335,0.384,0.586,0.576,0.199,0.452,0.586,0.499,0.274,0,1,0,2,10472
"79",0.472,0.224,0.199,0.257,0.255,0.335,0.383,0.601,0.579,0.199,0.416,0.583,0.576,0.295,0,1,0,2,10473
"80",0.429,0.189,0.194,0.257,0.246,0.335,0.37,0.57,0.557,0.188,0.465,0.605,0.553,0.219,0,1,0,2,10474
"81",0.52,0.264,0.202,0.263,0.269,0.34,0.384,0.65,0.596,0.213,0.386,0.57,0.767,0.378,0,1,0,2,10475
"82",0.476,0.275,0.173,0.23,0.252,0.281,0.328,0.539,0.598,0.173,0.345,0.428,0.237,0.371,0,0,1,3,11004
"83",0.413,0.209,0.168,0.226,0.222,0.299,0.326,0.499,0.547,0.165,0.406,0.5,0.328,0.26,0,0,1,3,11101
"84",0.403,0.217,0.158,0.214,0.21,0.295,0.291,0.473,0.535,0.152,0.389,0.477,0.279,0.273,0,0,1,3,11102
"85",0.402,0.217,0.154,0.212,0.208,0.294,0.284,0.466,0.535,0.146,0.389,0.469,0.173,0.288,0,0,1,3,11103
"86",0.406,0.217,0.159,0.208,0.213,0.284,0.31,0.481,0.554,0.15,0.384,0.466,0.119,0.285,0,0,1,3,11104
"87",0.425,0.239,0.155,0.217,0.217,0.294,0.278,0.476,0.547,0.149,0.378,0.462,0.139,0.302,0,0,1,3,11105
"88",0.406,0.22,0.158,0.21,0.212,0.291,0.297,0.479,0.542,0.151,0.381,0.472,0.226,0.284,0,0,1,3,11106
"89",0.316,0.182,0.118,0.145,0.145,0.27,0.207,0.387,0.468,0.105,0.313,0.42,0.225,0.147,1,0,0,1,11109
"90",0.397,0.228,0.154,0.199,0.197,0.299,0.274,0.464,0.515,0.148,0.345,0.448,0.386,0.269,0.892,0,0.108,1,11201
"91",0.479,0.238,0.191,0.252,0.241,0.348,0.376,0.608,0.553,0.208,0.418,0.558,0.923,0.324,0,1,0,2,11203
"92",0.456,0.245,0.178,0.272,0.257,0.308,0.328,0.517,0.575,0.183,0.436,0.456,0.094,0.305,0,0,1,3,11204
"93",0.401,0.204,0.167,0.225,0.204,0.326,0.308,0.498,0.507,0.167,0.416,0.506,0.577,0.242,0,0,1,3,11205
"94",0.413,0.203,0.18,0.246,0.227,0.325,0.34,0.509,0.531,0.178,0.446,0.525,0.458,0.249,0,0.754,0.246,2,11206
"95",0.451,0.214,0.193,0.258,0.24,0.344,0.376,0.572,0.547,0.201,0.449,0.568,0.762,0.253,0,1,0,2,11207
"96",0.435,0.209,0.185,0.247,0.234,0.329,0.367,0.55,0.547,0.19,0.439,0.545,0.7,0.245,0,1,0,2,11208
"97",0.44,0.253,0.163,0.233,0.228,0.299,0.29,0.49,0.555,0.16,0.377,0.447,0.149,0.328,0,0,1,3,11209
"98",0.457,0.24,0.176,0.241,0.23,0.33,0.334,0.556,0.548,0.184,0.4,0.515,0.735,0.298,0,0.991,0.009,2,11210
"99",0.398,0.212,0.164,0.242,0.22,0.312,0.289,0.462,0.519,0.16,0.425,0.477,0.206,0.239,0,0,1,3,11211
"100",0.481,0.223,0.204,0.282,0.255,0.362,0.397,0.612,0.557,0.223,0.472,0.591,0.889,0.283,0,1,0,2,11212
"101",0.465,0.227,0.191,0.261,0.242,0.349,0.367,0.584,0.546,0.206,0.44,0.557,0.793,0.27,0,1,0,2,11213
"102",0.455,0.251,0.176,0.258,0.252,0.298,0.329,0.518,0.578,0.18,0.408,0.438,0.103,0.325,0,0,1,3,11214
"103",0.374,0.223,0.137,0.176,0.174,0.29,0.238,0.424,0.502,0.124,0.324,0.426,0.184,0.252,1,0,0,1,11215
"104",0.428,0.214,0.174,0.224,0.212,0.336,0.333,0.552,0.521,0.181,0.404,0.534,0.764,0.267,0,0.998,0.002,2,11216
"105",0.391,0.221,0.152,0.194,0.19,0.303,0.274,0.464,0.509,0.145,0.35,0.458,0.442,0.271,0.986,0,0.014,1,11217
"106",0.431,0.229,0.172,0.25,0.235,0.309,0.317,0.503,0.552,0.173,0.422,0.475,0.289,0.271,0,0,1,3,11218
"107",0.456,0.234,0.189,0.294,0.273,0.316,0.346,0.527,0.576,0.198,0.478,0.477,0.1,0.28,0,0.941,0.059,2,11219
"108",0.412,0.204,0.182,0.251,0.244,0.3,0.361,0.508,0.564,0.181,0.455,0.468,0.151,0.259,0,0,1,3,11220
"109",0.426,0.21,0.181,0.233,0.224,0.33,0.351,0.543,0.534,0.183,0.418,0.541,0.641,0.261,0,0.999,0.001,2,11221
"110",0.384,0.221,0.144,0.202,0.19,0.298,0.249,0.436,0.505,0.136,0.371,0.443,0.232,0.258,1,0,0,1,11222
"111",0.461,0.254,0.177,0.263,0.254,0.306,0.325,0.521,0.577,0.181,0.413,0.455,0.19,0.321,0,0,1,3,11223
"112",0.519,0.286,0.205,0.297,0.295,0.323,0.372,0.587,0.605,0.217,0.409,0.504,0.457,0.411,0,1,0,2,11224
"113",0.452,0.228,0.181,0.238,0.226,0.339,0.347,0.568,0.538,0.19,0.409,0.537,0.778,0.288,0,1,0,2,11225
"114",0.45,0.221,0.182,0.243,0.225,0.341,0.355,0.57,0.539,0.192,0.424,0.546,0.797,0.272,0,1,0,2,11226
"115",0.459,0.256,0.174,0.257,0.251,0.299,0.322,0.517,0.577,0.178,0.406,0.44,0.084,0.328,0,0,1,3,11228
"116",0.468,0.265,0.174,0.255,0.25,0.304,0.317,0.522,0.578,0.178,0.39,0.448,0.211,0.337,0,0,1,3,11229
"117",0.464,0.256,0.179,0.264,0.255,0.312,0.32,0.525,0.571,0.183,0.408,0.469,0.298,0.311,0,0,1,3,11230
"118",0.4,0.226,0.156,0.209,0.2,0.303,0.281,0.462,0.517,0.151,0.363,0.461,0.336,0.266,0.001,0,0.999,3,11231
"119",0.375,0.193,0.162,0.215,0.208,0.297,0.312,0.463,0.522,0.152,0.417,0.48,0.212,0.242,0,0,1,3,11232
"120",0.459,0.217,0.192,0.261,0.237,0.355,0.372,0.589,0.54,0.207,0.453,0.574,0.85,0.267,0,1,0,2,11233
"121",0.462,0.253,0.171,0.238,0.229,0.322,0.32,0.543,0.555,0.177,0.386,0.493,0.675,0.321,0,0.002,0.998,3,11234
"122",0.492,0.285,0.183,0.265,0.268,0.302,0.323,0.54,0.593,0.186,0.379,0.453,0.147,0.389,0,0,1,3,11235
"123",0.462,0.232,0.181,0.24,0.225,0.345,0.353,0.583,0.542,0.192,0.408,0.543,0.923,0.296,0,1,0,2,11236
"124",0.38,0.189,0.169,0.216,0.209,0.306,0.325,0.476,0.522,0.157,0.414,0.511,0.332,0.219,0,0,1,3,11237
"125",0.397,0.215,0.156,0.197,0.19,0.316,0.287,0.492,0.503,0.155,0.362,0.48,0.614,0.275,0,0,1,3,11238
"126",0.533,0.278,0.216,0.301,0.296,0.345,0.408,0.633,0.601,0.234,0.423,0.55,0.8,0.389,0,1,0,2,11239
"127",0.451,0.232,0.183,0.242,0.26,0.28,0.381,0.547,0.606,0.187,0.408,0.436,0.17,0.333,0,0,1,3,11354
"128",0.435,0.216,0.183,0.238,0.256,0.277,0.39,0.542,0.603,0.188,0.421,0.43,0.184,0.329,0,0,1,3,11355
"129",0.446,0.235,0.172,0.241,0.244,0.291,0.339,0.52,0.583,0.17,0.407,0.475,0.148,0.313,0,0,1,3,11356
"130",0.478,0.267,0.176,0.244,0.258,0.286,0.338,0.541,0.604,0.178,0.374,0.443,0.094,0.354,0,0,1,3,11357
"131",0.454,0.251,0.168,0.231,0.242,0.282,0.328,0.521,0.591,0.167,0.375,0.437,0.088,0.351,0,0,1,3,11358
"132",0.495,0.293,0.175,0.235,0.259,0.281,0.322,0.547,0.61,0.173,0.332,0.435,0.08,0.405,0,0,1,3,11360
"133",0.441,0.248,0.161,0.215,0.229,0.278,0.315,0.508,0.58,0.159,0.355,0.427,0.153,0.346,0,0,1,3,11361
"134",0.47,0.27,0.169,0.228,0.248,0.277,0.324,0.531,0.601,0.168,0.343,0.428,0.097,0.395,0,0,1,3,11362
"135",0.464,0.269,0.163,0.218,0.235,0.275,0.313,0.521,0.597,0.16,0.331,0.429,0.106,0.362,0,0,1,3,11363
"136",0.449,0.253,0.164,0.219,0.235,0.275,0.325,0.519,0.592,0.163,0.352,0.418,0.15,0.345,0,0,1,3,11364
"137",0.449,0.243,0.173,0.23,0.243,0.286,0.341,0.529,0.587,0.174,0.376,0.447,0.264,0.32,0,0,1,3,11365
"138",0.44,0.244,0.164,0.217,0.231,0.283,0.321,0.514,0.579,0.163,0.358,0.435,0.236,0.332,0,0,1,3,11366
"139",0.443,0.237,0.169,0.232,0.236,0.297,0.326,0.516,0.573,0.17,0.389,0.462,0.282,0.312,0,0,1,3,11367
"140",0.399,0.191,0.173,0.223,0.224,0.299,0.346,0.502,0.547,0.165,0.434,0.539,0.31,0.245,0,0,1,3,11368
"141",0.429,0.213,0.177,0.226,0.234,0.299,0.357,0.528,0.564,0.174,0.403,0.532,0.37,0.303,0,0,1,3,11369
"142",0.408,0.21,0.163,0.222,0.222,0.296,0.32,0.51,0.552,0.159,0.423,0.504,0.323,0.292,0,0,1,3,11370
"143",0.416,0.215,0.171,0.217,0.23,0.282,0.345,0.506,0.57,0.162,0.393,0.491,0.121,0.303,0,0,1,3,11372
"144",0.401,0.204,0.168,0.211,0.224,0.276,0.349,0.501,0.57,0.161,0.398,0.457,0.146,0.299,0,0,1,3,11373
"145",0.46,0.259,0.169,0.229,0.243,0.286,0.32,0.522,0.588,0.168,0.36,0.452,0.186,0.366,0,0,1,3,11374
"146",0.455,0.263,0.166,0.219,0.236,0.282,0.308,0.514,0.582,0.162,0.339,0.443,0.162,0.351,0,0,1,3,11375
"147",0.412,0.218,0.164,0.216,0.223,0.281,0.327,0.495,0.565,0.158,0.392,0.458,0.127,0.301,0,0,1,3,11377
"148",0.447,0.242,0.163,0.238,0.233,0.296,0.304,0.504,0.569,0.161,0.404,0.485,0.115,0.295,0,0,1,3,11378
"149",0.474,0.265,0.167,0.247,0.245,0.299,0.305,0.519,0.585,0.168,0.392,0.475,0.102,0.342,0,0,1,3,11379
"150",0.429,0.227,0.161,0.23,0.222,0.298,0.304,0.49,0.557,0.155,0.407,0.499,0.117,0.261,0,0,1,3,11385
"151",0.487,0.246,0.183,0.232,0.235,0.336,0.369,0.614,0.567,0.196,0.386,0.56,0.938,0.347,0,1,0,2,11411
"152",0.477,0.235,0.184,0.238,0.235,0.34,0.366,0.604,0.559,0.198,0.408,0.563,0.909,0.302,0,1,0,2,11412
"153",0.469,0.232,0.177,0.229,0.224,0.339,0.355,0.595,0.552,0.189,0.401,0.561,0.93,0.3,0,1,0,2,11413
"154",0.507,0.284,0.179,0.268,0.268,0.304,0.324,0.55,0.606,0.183,0.397,0.486,0.16,0.378,0,0,1,3,11414
"155",0.437,0.242,0.162,0.217,0.224,0.291,0.304,0.501,0.564,0.156,0.364,0.472,0.243,0.315,0,0,1,3,11415
"156",0.423,0.211,0.17,0.234,0.229,0.303,0.337,0.506,0.561,0.167,0.42,0.496,0.23,0.257,0,0,1,3,11416
"157",0.435,0.222,0.169,0.239,0.233,0.306,0.332,0.511,0.567,0.168,0.419,0.49,0.261,0.276,0,0,1,3,11417
"158",0.427,0.225,0.166,0.223,0.226,0.296,0.323,0.504,0.563,0.161,0.392,0.486,0.252,0.276,0,0,1,3,11418
"159",0.434,0.212,0.171,0.246,0.234,0.319,0.347,0.522,0.565,0.175,0.442,0.489,0.394,0.267,0,0.005,0.995,3,11419
"160",0.444,0.22,0.172,0.245,0.234,0.324,0.345,0.534,0.563,0.178,0.434,0.504,0.465,0.277,0,0.221,0.779,3,11420
"161",0.419,0.215,0.166,0.221,0.223,0.295,0.33,0.499,0.562,0.158,0.396,0.498,0.175,0.271,0,0,1,3,11421
"162",0.462,0.23,0.172,0.223,0.218,0.336,0.346,0.583,0.55,0.181,0.395,0.554,0.919,0.293,0,1,0,2,11422
"163",0.46,0.236,0.179,0.238,0.241,0.317,0.356,0.559,0.574,0.185,0.402,0.508,0.595,0.324,0,0.637,0.363,2,11423
"164",0.448,0.247,0.166,0.225,0.234,0.286,0.324,0.52,0.582,0.165,0.372,0.447,0.256,0.312,0,0,1,3,11426
"165",0.449,0.237,0.171,0.226,0.234,0.3,0.342,0.538,0.577,0.172,0.383,0.477,0.449,0.308,0,0,1,3,11427
"166",0.443,0.224,0.17,0.229,0.228,0.312,0.345,0.541,0.566,0.173,0.402,0.502,0.549,0.291,0,0,1,3,11428
"167",0.467,0.239,0.177,0.234,0.236,0.32,0.353,0.573,0.57,0.186,0.392,0.522,0.721,0.319,0,0.98,0.02,2,11429
"168",0.432,0.221,0.175,0.23,0.237,0.3,0.35,0.529,0.569,0.176,0.4,0.483,0.374,0.299,0,0,1,3,11432
"169",0.468,0.224,0.187,0.252,0.241,0.34,0.372,0.587,0.561,0.2,0.441,0.564,0.761,0.283,0,1,0,2,11433
"170",0.481,0.235,0.186,0.244,0.238,0.343,0.37,0.606,0.56,0.201,0.417,0.569,0.908,0.308,0,1,0,2,11434
"171",0.442,0.219,0.177,0.239,0.234,0.318,0.352,0.545,0.561,0.181,0.424,0.526,0.553,0.283,0,0.847,0.153,2,11435
"172",0.465,0.223,0.181,0.244,0.233,0.342,0.362,0.587,0.554,0.195,0.434,0.561,0.778,0.264,0,1,0,2,11436
"173",0.48,0.234,0.194,0.272,0.26,0.339,0.373,0.583,0.574,0.204,0.45,0.568,0.671,0.285,0,1,0,2,11691
"174",0.474,0.228,0.189,0.265,0.248,0.342,0.367,0.579,0.568,0.198,0.451,0.571,0.681,0.269,0,1,0,2,11692
"175",0.463,0.238,0.17,0.246,0.232,0.32,0.326,0.537,0.569,0.172,0.418,0.525,0.439,0.28,0,0.005,0.995,3,11693
"176",0.489,0.274,0.172,0.25,0.252,0.303,0.314,0.54,0.595,0.173,0.38,0.486,0.276,0.377,0,0,1,3,11694
"177",0.518,0.307,0.173,0.247,0.259,0.297,0.302,0.547,0.614,0.17,0.342,0.46,0.054,0.4,0,0,1,3,11697
