Mplus VERSION 8 (Mac)
MUTHEN & MUTHEN
06/16/2020  11:07 AM

INPUT INSTRUCTIONS

  TITLE:	
  	NYC SES Model 2-2;
  	
  DATA:	
  	FILE = "~/Documents/Projects/10-COVID/COVID/NY-Corona/output/acs_master_mplus.csv";
  		
  VARIABLE:	
  	NAMES ARE
  		MODZCTA male white nhb hisp age1 age2 age3 age4 age65 poverty fem_head
  		single f_mp_job m_mp_job rental crowd unmplyd hs_drpt phone pa
  		no_car internet;
  	MISSING ARE ALL (-9999);
  	IDVARIABLE IS MODZCTA;
  	USEVARIABLES ARE
  		nhb age65 poverty fem_head single f_mp_job m_mp_job
  		rental crowd unmplyd hs_drpt pa no_car internet;

         CLASSES = disadv(2) adv(2);

  ANALYSIS:
  		TYPE = MIXTURE;
      	PARAMETERIZATION = LOGLINEAR;
      	STARTS = 250, 10;

  MODEL:
      	%OVERALL%
      	disadv adv ON nhb age65;
      	disadv WITH adv;

      	MODEL disadv:
      	%disadv#1%
      	[poverty fem_head single rental crowd unmplyd pa no_car internet]
      	%disadv#2%
      	[poverty fem_head single rental crowd unmplyd pa no_car internet]

      	MODEL adv:
      	%adv#1%
      	[f_mp_job m_mp_job hs_drpt]
      	%adv#2%
      	[f_mp_job m_mp_job hs_drpt]

  SAVEDATA:
      	FILE IS nyc_ses_2_2_probs.txt;
      	FORMAT IS FREE;
      	SAVE = CPROBABILITIES;

  OUTPUT:
      	tech4;
      	SVALUES;



*** WARNING in MODEL command
  Variable is uncorrelated with all other variables within class:  POVERTY
*** WARNING in MODEL command
  Variable is uncorrelated with all other variables within class:  FEM_HEAD
*** WARNING in MODEL command
  Variable is uncorrelated with all other variables within class:  SINGLE
*** WARNING in MODEL command
  Variable is uncorrelated with all other variables within class:  F_MP_JOB
*** WARNING in MODEL command
  Variable is uncorrelated with all other variables within class:  M_MP_JOB
*** WARNING in MODEL command
  Variable is uncorrelated with all other variables within class:  RENTAL
*** WARNING in MODEL command
  Variable is uncorrelated with all other variables within class:  CROWD
*** WARNING in MODEL command
  Variable is uncorrelated with all other variables within class:  UNMPLYD
*** WARNING in MODEL command
  Variable is uncorrelated with all other variables within class:  HS_DRPT
*** WARNING in MODEL command
  Variable is uncorrelated with all other variables within class:  PA
*** WARNING in MODEL command
  Variable is uncorrelated with all other variables within class:  NO_CAR
*** WARNING in MODEL command
  Variable is uncorrelated with all other variables within class:  INTERNET
*** WARNING in MODEL command
  At least one variable is uncorrelated with all other variables within class.
  Check that this is what is intended.
  13 WARNING(S) FOUND IN THE INPUT INSTRUCTIONS




NYC SES Model 2-2;

SUMMARY OF ANALYSIS

Number of groups                                                 1
Number of observations                                         177

Number of dependent variables                                   12
Number of independent variables                                  2
Number of continuous latent variables                            0
Number of categorical latent variables                           2

Observed dependent variables

  Continuous
   POVERTY     FEM_HEAD    SINGLE      F_MP_JOB    M_MP_JOB    RENTAL
   CROWD       UNMPLYD     HS_DRPT     PA          NO_CAR      INTERNET

Observed independent variables
   NHB         AGE65

Categorical latent variables
   DISADV      ADV

Variables with special functions

  ID variable           MODZCTA

Estimator                                                      MLR
Information matrix                                        OBSERVED
Optimization Specifications for the Quasi-Newton Algorithm for
Continuous Outcomes
  Maximum number of iterations                                 100
  Convergence criterion                                  0.100D-05
Optimization Specifications for the EM Algorithm
  Maximum number of iterations                                 500
  Convergence criteria
    Loglikelihood change                                 0.100D-06
    Relative loglikelihood change                        0.100D-06
    Derivative                                           0.100D-05
Optimization Specifications for the M step of the EM Algorithm for
Categorical Latent variables
  Number of M step iterations                                    1
  M step convergence criterion                           0.100D-05
  Basis for M step termination                           ITERATION
Optimization Specifications for the M step of the EM Algorithm for
Censored, Binary or Ordered Categorical (Ordinal), Unordered
Categorical (Nominal) and Count Outcomes
  Number of M step iterations                                    1
  M step convergence criterion                           0.100D-05
  Basis for M step termination                           ITERATION
  Maximum value for logit thresholds                            15
  Minimum value for logit thresholds                           -15
  Minimum expected cell size for chi-square              0.100D-01
Maximum number of iterations for H1                           2000
Convergence criterion for H1                             0.100D-03
Optimization algorithm                                         EMA
Random Starts Specifications
  Number of initial stage random starts                        250
  Number of final stage optimizations                           10
  Number of initial stage iterations                            10
  Initial stage convergence criterion                    0.100D+01
  Random starts scale                                    0.500D+01
  Random seed for generating random starts                       0
Parameterization                                         LOGLINEAR

Input data file(s)
  ~/Documents/Projects/10-COVID/COVID/NY-Corona/output/acs_master_mplus.csv
Input data format  FREE


SUMMARY OF DATA

     Number of missing data patterns             1
     Number of y missing data patterns           1
     Number of u missing data patterns           0


COVARIANCE COVERAGE OF DATA

Minimum covariance coverage value   0.100


     PROPORTION OF DATA PRESENT FOR Y


           Covariance Coverage
              POVERTY       FEM_HEAD      SINGLE        F_MP_JOB      M_MP_JOB
              ________      ________      ________      ________      ________
 POVERTY        1.000
 FEM_HEAD       1.000         1.000
 SINGLE         1.000         1.000         1.000
 F_MP_JOB       1.000         1.000         1.000         1.000
 M_MP_JOB       1.000         1.000         1.000         1.000         1.000
 RENTAL         1.000         1.000         1.000         1.000         1.000
 CROWD          1.000         1.000         1.000         1.000         1.000
 UNMPLYD        1.000         1.000         1.000         1.000         1.000
 HS_DRPT        1.000         1.000         1.000         1.000         1.000
 PA             1.000         1.000         1.000         1.000         1.000
 NO_CAR         1.000         1.000         1.000         1.000         1.000
 INTERNET       1.000         1.000         1.000         1.000         1.000
 NHB            1.000         1.000         1.000         1.000         1.000
 AGE65          1.000         1.000         1.000         1.000         1.000


           Covariance Coverage
              RENTAL        CROWD         UNMPLYD       HS_DRPT       PA
              ________      ________      ________      ________      ________
 RENTAL         1.000
 CROWD          1.000         1.000
 UNMPLYD        1.000         1.000         1.000
 HS_DRPT        1.000         1.000         1.000         1.000
 PA             1.000         1.000         1.000         1.000         1.000
 NO_CAR         1.000         1.000         1.000         1.000         1.000
 INTERNET       1.000         1.000         1.000         1.000         1.000
 NHB            1.000         1.000         1.000         1.000         1.000
 AGE65          1.000         1.000         1.000         1.000         1.000


           Covariance Coverage
              NO_CAR        INTERNET      NHB           AGE65
              ________      ________      ________      ________
 NO_CAR         1.000
 INTERNET       1.000         1.000
 NHB            1.000         1.000         1.000
 AGE65          1.000         1.000         1.000         1.000



UNIVARIATE SAMPLE STATISTICS


     UNIVARIATE HIGHER-ORDER MOMENT DESCRIPTIVE STATISTICS

         Variable/         Mean/     Skewness/   Minimum/ % with                Percentiles
        Sample Size      Variance    Kurtosis    Maximum  Min/Max      20%/60%    40%/80%    Median

     POVERTY               0.457      -0.942       0.000    4.52%       0.336      0.433      0.487
             177.000       0.025       1.047       0.732    0.56%       0.509      0.597
     FEM_HEAD              0.501       0.126       0.131    0.56%       0.391      0.438      0.472
             177.000       0.020      -0.705       0.805    0.56%       0.508      0.647
     SINGLE                0.580       0.074       0.232    0.56%       0.459      0.524      0.550
             177.000       0.020      -0.851       0.864    0.56%       0.603      0.726
     F_MP_JOB              0.314       0.748       0.139    0.56%       0.229      0.264      0.287
             177.000       0.011      -0.301       0.622    0.56%       0.303      0.418
     M_MP_JOB              0.307       0.611       0.108    0.56%       0.210      0.256      0.281
             177.000       0.013      -0.679       0.578    0.56%       0.299      0.434
     RENTAL                0.767      -0.932       0.123    0.56%       0.622      0.760      0.803
             177.000       0.026       0.649       0.983    0.56%       0.834      0.915
     CROWD                 0.276       0.452       0.123    0.56%       0.199      0.251      0.270
             177.000       0.006      -0.069       0.534    0.56%       0.290      0.338
     UNMPLYD               0.212       0.245       0.122    0.56%       0.175      0.198      0.207
             177.000       0.002      -0.479       0.318    0.56%       0.220      0.251
     HS_DRPT               0.392      -0.282       0.068    0.56%       0.285      0.367      0.396
             177.000       0.016      -0.389       0.670    0.56%       0.424      0.498
     PA                    0.185       0.090       0.000    0.56%       0.122      0.172      0.184
             177.000       0.005      -0.251       0.349    0.56%       0.198      0.240
     NO_CAR                0.686      -0.619       0.256    0.56%       0.486      0.661      0.737
             177.000       0.035      -0.837       0.922    0.56%       0.795      0.859
     INTERNET              0.885      -0.339       0.732    0.56%       0.840      0.878      0.895
             177.000       0.002      -0.106       0.990    0.56%       0.900      0.925
     NHB                   0.371       0.740       0.054    0.56%       0.149      0.236      0.279
             177.000       0.059      -0.621       0.938    0.56%       0.374      0.593
     AGE65                 0.297      -0.746       0.045    0.56%       0.260      0.283      0.296
             177.000       0.003       2.803       0.411    0.56%       0.308      0.337

RANDOM STARTS RESULTS RANKED FROM THE BEST TO THE WORST LOGLIKELIHOOD VALUES

Final stage loglikelihood values at local maxima, seeds, and initial stage start numbers:

            2398.461  25127            107
            2398.461  227563           63
            2398.461  unperturbed      0
            2398.461  509733           130
            2398.461  70118            104
            2398.461  65651            214
            2398.461  608460           244
            2398.461  939709           112
            2398.461  366706           29
            2398.461  373505           88



THE BEST LOGLIKELIHOOD VALUE HAS BEEN REPLICATED.  RERUN WITH AT LEAST TWICE THE
RANDOM STARTS TO CHECK THAT THE BEST LOGLIKELIHOOD IS STILL OBTAINED AND REPLICATED.


THE MODEL ESTIMATION TERMINATED NORMALLY



MODEL FIT INFORMATION

Number of Free Parameters                       43

Loglikelihood

          H0 Value                        2398.461
          H0 Scaling Correction Factor      1.1105
            for MLR

Information Criteria

          Akaike (AIC)                   -4710.922
          Bayesian (BIC)                 -4574.348
          Sample-Size Adjusted BIC       -4710.521
            (n* = (n + 2) / 24)



MODEL RESULTS USE THE LATENT CLASS VARIABLE ORDER

   DISADV  ADV

  Latent Class Variable Patterns

     DISADV       ADV
      Class     Class

         1         1
         1         2
         2         1
         2         2


FINAL CLASS COUNTS AND PROPORTIONS FOR THE LATENT CLASS PATTERNS
BASED ON THE ESTIMATED MODEL

  Latent Class
    Pattern

    1  1         42.53808          0.24033
    1  2         67.82868          0.38321
    2  1          1.83170          0.01035
    2  2         64.80154          0.36611


FINAL CLASS COUNTS AND PROPORTIONS FOR EACH LATENT CLASS VARIABLE
BASED ON THE ESTIMATED MODEL

  Latent Class
    Variable    Class

    DISADV         1       110.36676          0.62354
                   2        66.63324          0.37646
    ADV            1        44.36978          0.25068
                   2       132.63022          0.74932


FINAL CLASS COUNTS AND PROPORTIONS FOR THE LATENT CLASS PATTERNS
BASED ON ESTIMATED POSTERIOR PROBABILITIES

  Latent Class
    Pattern

    1  1         42.53808          0.24033
    1  2         67.82868          0.38321
    2  1          1.83170          0.01035
    2  2         64.80154          0.36611


FINAL CLASS COUNTS AND PROPORTIONS FOR EACH LATENT CLASS VARIABLE
BASED ON ESTIMATED POSTERIOR PROBABILITIES

  Latent Class
    Variable    Class

    DISADV         1       110.36676          0.62354
                   2        66.63324          0.37646
    ADV            1        44.36978          0.25068
                   2       132.63022          0.74932


FINAL CLASS COUNTS AND PROPORTIONS FOR THE LATENT CLASS PATTERNS
BASED ON THEIR MOST LIKELY LATENT CLASS PATTERN

Class Counts and Proportions

  Latent Class
    Pattern

    1  1               43          0.24294
    1  2               68          0.38418
    2  1                2          0.01130
    2  2               64          0.36158


FINAL CLASS COUNTS AND PROPORTIONS FOR EACH LATENT CLASS VARIABLE
BASED ON THEIR MOST LIKELY LATENT CLASS PATTERN

  Latent Class
    Variable    Class

    DISADV         1             111          0.62712
                   2              66          0.37288
    ADV            1              45          0.25424
                   2             132          0.74576


CLASSIFICATION QUALITY

     Entropy                         0.954


Average Latent Class Probabilities for Most Likely Latent Class Pattern (Row)
by Latent Class Pattern (Column)

  Latent Class Variable Patterns

  Latent Class     DISADV       ADV
   Pattern No.      Class     Class

         1             1         1
         2             1         2
         3             2         1
         4             2         2

           1        2        3        4

    1   0.964    0.031    0.003    0.002
    2   0.016    0.969    0.000    0.015
    3   0.007    0.000    0.806    0.186
    4   0.000    0.010    0.001    0.989


MODEL RESULTS

                                                    Two-Tailed
                    Estimate       S.E.  Est./S.E.    P-Value

Latent Class Pattern 1 1

 Means
    POVERTY            0.402      0.016     25.523      0.000
    FEM_HEAD           0.407      0.010     41.711      0.000
    SINGLE             0.486      0.010     47.213      0.000
    F_MP_JOB           0.468      0.012     38.837      0.000
    M_MP_JOB           0.471      0.012     38.874      0.000
    RENTAL             0.721      0.015     46.762      0.000
    CROWD              0.256      0.008     33.867      0.000
    UNMPLYD            0.190      0.003     54.955      0.000
    HS_DRPT            0.249      0.020     12.760      0.000
    PA                 0.148      0.006     25.629      0.000
    NO_CAR             0.648      0.020     32.537      0.000
    INTERNET           0.910      0.004    239.122      0.000

 Variances
    POVERTY            0.020      0.003      7.247      0.000
    FEM_HEAD           0.005      0.001      7.378      0.000
    SINGLE             0.006      0.001      8.613      0.000
    F_MP_JOB           0.003      0.000      8.863      0.000
    M_MP_JOB           0.004      0.000      8.773      0.000
    RENTAL             0.022      0.003      7.267      0.000
    CROWD              0.006      0.001      8.842      0.000
    UNMPLYD            0.001      0.000      8.845      0.000
    HS_DRPT            0.010      0.001     10.530      0.000
    PA                 0.002      0.000     11.142      0.000
    NO_CAR             0.032      0.003     11.405      0.000
    INTERNET           0.001      0.000      6.998      0.000

Latent Class Pattern 1 2

 Means
    POVERTY            0.402      0.016     25.523      0.000
    FEM_HEAD           0.407      0.010     41.711      0.000
    SINGLE             0.486      0.010     47.213      0.000
    F_MP_JOB           0.262      0.006     42.388      0.000
    M_MP_JOB           0.253      0.007     37.576      0.000
    RENTAL             0.721      0.015     46.762      0.000
    CROWD              0.256      0.008     33.867      0.000
    UNMPLYD            0.190      0.003     54.955      0.000
    HS_DRPT            0.440      0.009     48.951      0.000
    PA                 0.148      0.006     25.629      0.000
    NO_CAR             0.648      0.020     32.537      0.000
    INTERNET           0.910      0.004    239.122      0.000

 Variances
    POVERTY            0.020      0.003      7.247      0.000
    FEM_HEAD           0.005      0.001      7.378      0.000
    SINGLE             0.006      0.001      8.613      0.000
    F_MP_JOB           0.003      0.000      8.863      0.000
    M_MP_JOB           0.004      0.000      8.773      0.000
    RENTAL             0.022      0.003      7.267      0.000
    CROWD              0.006      0.001      8.842      0.000
    UNMPLYD            0.001      0.000      8.845      0.000
    HS_DRPT            0.010      0.001     10.530      0.000
    PA                 0.002      0.000     11.142      0.000
    NO_CAR             0.032      0.003     11.405      0.000
    INTERNET           0.001      0.000      6.998      0.000

Latent Class Pattern 2 1

 Means
    POVERTY            0.547      0.016     34.194      0.000
    FEM_HEAD           0.656      0.013     50.609      0.000
    SINGLE             0.736      0.012     59.329      0.000
    F_MP_JOB           0.468      0.012     38.837      0.000
    M_MP_JOB           0.471      0.012     38.874      0.000
    RENTAL             0.844      0.022     37.517      0.000
    CROWD              0.308      0.010     30.863      0.000
    UNMPLYD            0.247      0.004     57.315      0.000
    HS_DRPT            0.249      0.020     12.760      0.000
    PA                 0.246      0.007     34.280      0.000
    NO_CAR             0.749      0.023     32.044      0.000
    INTERNET           0.843      0.006    141.574      0.000

 Variances
    POVERTY            0.020      0.003      7.247      0.000
    FEM_HEAD           0.005      0.001      7.378      0.000
    SINGLE             0.006      0.001      8.613      0.000
    F_MP_JOB           0.003      0.000      8.863      0.000
    M_MP_JOB           0.004      0.000      8.773      0.000
    RENTAL             0.022      0.003      7.267      0.000
    CROWD              0.006      0.001      8.842      0.000
    UNMPLYD            0.001      0.000      8.845      0.000
    HS_DRPT            0.010      0.001     10.530      0.000
    PA                 0.002      0.000     11.142      0.000
    NO_CAR             0.032      0.003     11.405      0.000
    INTERNET           0.001      0.000      6.998      0.000

Latent Class Pattern 2 2

 Means
    POVERTY            0.547      0.016     34.194      0.000
    FEM_HEAD           0.656      0.013     50.609      0.000
    SINGLE             0.736      0.012     59.329      0.000
    F_MP_JOB           0.262      0.006     42.388      0.000
    M_MP_JOB           0.253      0.007     37.576      0.000
    RENTAL             0.844      0.022     37.517      0.000
    CROWD              0.308      0.010     30.863      0.000
    UNMPLYD            0.247      0.004     57.315      0.000
    HS_DRPT            0.440      0.009     48.951      0.000
    PA                 0.246      0.007     34.280      0.000
    NO_CAR             0.749      0.023     32.044      0.000
    INTERNET           0.843      0.006    141.574      0.000

 Variances
    POVERTY            0.020      0.003      7.247      0.000
    FEM_HEAD           0.005      0.001      7.378      0.000
    SINGLE             0.006      0.001      8.613      0.000
    F_MP_JOB           0.003      0.000      8.863      0.000
    M_MP_JOB           0.004      0.000      8.773      0.000
    RENTAL             0.022      0.003      7.267      0.000
    CROWD              0.006      0.001      8.842      0.000
    UNMPLYD            0.001      0.000      8.845      0.000
    HS_DRPT            0.010      0.001     10.530      0.000
    PA                 0.002      0.000     11.142      0.000
    NO_CAR             0.032      0.003     11.405      0.000
    INTERNET           0.001      0.000      6.998      0.000

Categorical Latent Variables

 DISADV#1   ON
    NHB              -10.514      2.165     -4.855      0.000
    AGE65             12.747      6.144      2.075      0.038

 ADV#1      ON
    NHB               -2.610      1.549     -1.685      0.092
    AGE65            -11.237      3.703     -3.035      0.002

 DISADV#1 WITH
    ADV#1              2.643      1.178      2.244      0.025

 Intercepts
    DISADV#1           0.521      1.952      0.267      0.789
    ADV#1              0.902      1.532      0.589      0.556


LOGISTIC REGRESSION ODDS RATIO RESULTS

Categorical Latent Variables

 DISADV#1 ON
    NHB                0.000
    AGE65          *********

 ADV#1    ON
    NHB                0.074
    AGE65              0.000


QUALITY OF NUMERICAL RESULTS

     Condition Number for the Information Matrix              0.133E-06
       (ratio of smallest to largest eigenvalue)


MODEL COMMAND WITH FINAL ESTIMATES USED AS STARTING VALUES

     %OVERALL%

     disadv#1 ON nhb*-10.51420;
     disadv#1 ON age65*12.74718;
     adv#1 ON nhb*-2.60996;
     adv#1 ON age65*-11.23709;

     disadv#1 WITH adv#1*2.64251;

     [ disadv#1*0.52118 ];
     [ adv#1*0.90244 ];

     %DISADV#1.ADV#1%

     poverty*0.01977 (13);
     fem_head*0.00535 (14);
     single*0.00563 (15);
     f_mp_job*0.00305 (16);
     m_mp_job*0.00369 (17);
     rental*0.02228 (18);
     crowd*0.00573 (19);
     unmplyd*0.00087 (20);
     hs_drpt*0.00959 (21);
     pa*0.00238 (22);
     no_car*0.03225 (23);
     internet*0.00134 (24);

     %DISADV#1.ADV#2%

     poverty*0.01977 (13);
     fem_head*0.00535 (14);
     single*0.00563 (15);
     f_mp_job*0.00305 (16);
     m_mp_job*0.00369 (17);
     rental*0.02228 (18);
     crowd*0.00573 (19);
     unmplyd*0.00087 (20);
     hs_drpt*0.00959 (21);
     pa*0.00238 (22);
     no_car*0.03225 (23);
     internet*0.00134 (24);

     %DISADV#2.ADV#1%

     poverty*0.01977 (13);
     fem_head*0.00535 (14);
     single*0.00563 (15);
     f_mp_job*0.00305 (16);
     m_mp_job*0.00369 (17);
     rental*0.02228 (18);
     crowd*0.00573 (19);
     unmplyd*0.00087 (20);
     hs_drpt*0.00959 (21);
     pa*0.00238 (22);
     no_car*0.03225 (23);
     internet*0.00134 (24);

     %DISADV#2.ADV#2%

     poverty*0.01977 (13);
     fem_head*0.00535 (14);
     single*0.00563 (15);
     f_mp_job*0.00305 (16);
     m_mp_job*0.00369 (17);
     rental*0.02228 (18);
     crowd*0.00573 (19);
     unmplyd*0.00087 (20);
     hs_drpt*0.00959 (21);
     pa*0.00238 (22);
     no_car*0.03225 (23);
     internet*0.00134 (24);

  MODEL DISADV:
     %DISADV#1%

     [ poverty*0.40194 ] (1);
     [ fem_head*0.40681 ] (2);
     [ single*0.48647 ] (3);
     [ rental*0.72119 ] (6);
     [ crowd*0.25645 ] (7);
     [ unmplyd*0.19049 ] (8);
     [ pa*0.14846 ] (10);
     [ no_car*0.64787 ] (11);
     [ internet*0.90952 ] (12);

     %DISADV#2%

     [ poverty*0.54728 ] (28);
     [ fem_head*0.65621 ] (29);
     [ single*0.73613 ] (30);
     [ rental*0.84353 ] (31);
     [ crowd*0.30765 ] (32);
     [ unmplyd*0.24708 ] (33);
     [ pa*0.24584 ] (34);
     [ no_car*0.74852 ] (35);
     [ internet*0.84324 ] (36);

  MODEL ADV:
     %ADV#1%

     [ f_mp_job*0.46820 ] (4);
     [ m_mp_job*0.47055 ] (5);
     [ hs_drpt*0.24944 ] (9);

     %ADV#2%

     [ f_mp_job*0.26176 ] (25);
     [ m_mp_job*0.25289 ] (26);
     [ hs_drpt*0.44017 ] (27);



TECHNICAL 4 OUTPUT


     ESTIMATES DERIVED FROM THE MODEL FOR PATTERN 1 1


           ESTIMATED MEANS FOR THE LATENT VARIABLES
              NHB           AGE65
              ________      ________
                0.214         0.287


           S.E. FOR ESTIMATED MEANS FOR THE LATENT VARIABLES
              NHB           AGE65
              ________      ________
                0.015         0.011


           EST./S.E. FOR ESTIMATED MEANS FOR THE LATENT VARIABLES
              NHB           AGE65
              ________      ________
               14.330        25.108


           TWO-TAILED P-VALUE FOR ESTIMATED MEANS FOR THE LATENT VARIABLES
              NHB           AGE65
              ________      ________
                0.000         0.000


           ESTIMATED COVARIANCE MATRIX FOR THE LATENT VARIABLES
              NHB           AGE65
              ________      ________
 NHB            0.010
 AGE65          0.000         0.006


           S.E. FOR ESTIMATED COVARIANCE MATRIX FOR THE LATENT VARIABLES
              NHB           AGE65
              ________      ________
 NHB            0.002
 AGE65          0.001         0.001


           EST./S.E. FOR ESTIMATED COVARIANCE MATRIX FOR THE LATENT VARIABLES
              NHB           AGE65
              ________      ________
 NHB            4.612
 AGE65         -0.178         4.612


           TWO-TAILED P-VALUE FOR ESTIMATED COVARIANCE MATRIX FOR THE LATENT VARIABLES
              NHB           AGE65
              ________      ________
 NHB            0.000
 AGE65          0.858         0.000


           ESTIMATED CORRELATION MATRIX FOR THE LATENT VARIABLES
              NHB           AGE65
              ________      ________
 NHB            1.000
 AGE65         -0.027         1.000


           S.E. FOR ESTIMATED CORRELATION MATRIX FOR THE LATENT VARIABLES
              NHB           AGE65
              ________      ________
 NHB            0.000
 AGE65          0.153         0.000


           EST./S.E. FOR ESTIMATED CORRELATION MATRIX FOR THE LATENT VARIABLES
              NHB           AGE65
              ________      ________
 NHB          999.000
 AGE65         -0.179       999.000


           TWO-TAILED P-VALUE FOR ESTIMATED CORRELATION MATRIX FOR THE LATENT VARIABLES
              NHB           AGE65
              ________      ________
 NHB            0.000
 AGE65          0.858         0.000


     ESTIMATES DERIVED FROM THE MODEL FOR PATTERN 1 2


           ESTIMATED MEANS FOR THE LATENT VARIABLES
              NHB           AGE65
              ________      ________
                0.234         0.319


           S.E. FOR ESTIMATED MEANS FOR THE LATENT VARIABLES
              NHB           AGE65
              ________      ________
                0.018         0.005


           EST./S.E. FOR ESTIMATED MEANS FOR THE LATENT VARIABLES
              NHB           AGE65
              ________      ________
               13.350        70.513


           TWO-TAILED P-VALUE FOR ESTIMATED MEANS FOR THE LATENT VARIABLES
              NHB           AGE65
              ________      ________
                0.000         0.000


           ESTIMATED COVARIANCE MATRIX FOR THE LATENT VARIABLES
              NHB           AGE65
              ________      ________
 NHB            0.021
 AGE65         -0.001         0.001


           S.E. FOR ESTIMATED COVARIANCE MATRIX FOR THE LATENT VARIABLES
              NHB           AGE65
              ________      ________
 NHB            0.004
 AGE65          0.001         0.000


           EST./S.E. FOR ESTIMATED COVARIANCE MATRIX FOR THE LATENT VARIABLES
              NHB           AGE65
              ________      ________
 NHB            5.824
 AGE65         -1.363         5.824


           TWO-TAILED P-VALUE FOR ESTIMATED COVARIANCE MATRIX FOR THE LATENT VARIABLES
              NHB           AGE65
              ________      ________
 NHB            0.000
 AGE65          0.173         0.000


           ESTIMATED CORRELATION MATRIX FOR THE LATENT VARIABLES
              NHB           AGE65
              ________      ________
 NHB            1.000
 AGE65         -0.168         1.000


           S.E. FOR ESTIMATED CORRELATION MATRIX FOR THE LATENT VARIABLES
              NHB           AGE65
              ________      ________
 NHB            0.000
 AGE65          0.118         0.000


           EST./S.E. FOR ESTIMATED CORRELATION MATRIX FOR THE LATENT VARIABLES
              NHB           AGE65
              ________      ________
 NHB          999.000
 AGE65         -1.422       999.000


           TWO-TAILED P-VALUE FOR ESTIMATED CORRELATION MATRIX FOR THE LATENT VARIABLES
              NHB           AGE65
              ________      ________
 NHB            0.000
 AGE65          0.155         0.000


     ESTIMATES DERIVED FROM THE MODEL FOR PATTERN 2 1


           ESTIMATED MEANS FOR THE LATENT VARIABLES
              NHB           AGE65
              ________      ________
                0.410         0.283


           S.E. FOR ESTIMATED MEANS FOR THE LATENT VARIABLES
              NHB           AGE65
              ________      ________
                0.105         0.024


           EST./S.E. FOR ESTIMATED MEANS FOR THE LATENT VARIABLES
              NHB           AGE65
              ________      ________
                3.890        11.623


           TWO-TAILED P-VALUE FOR ESTIMATED MEANS FOR THE LATENT VARIABLES
              NHB           AGE65
              ________      ________
                0.000         0.000


           ESTIMATED COVARIANCE MATRIX FOR THE LATENT VARIABLES
              NHB           AGE65
              ________      ________
 NHB            0.020
 AGE65         -0.004         0.001


           S.E. FOR ESTIMATED COVARIANCE MATRIX FOR THE LATENT VARIABLES
              NHB           AGE65
              ________      ________
 NHB            0.021
 AGE65          0.005         0.001


           EST./S.E. FOR ESTIMATED COVARIANCE MATRIX FOR THE LATENT VARIABLES
              NHB           AGE65
              ________      ________
 NHB            0.957
 AGE65         -0.915         0.957


           TWO-TAILED P-VALUE FOR ESTIMATED COVARIANCE MATRIX FOR THE LATENT VARIABLES
              NHB           AGE65
              ________      ________
 NHB            0.339
 AGE65          0.360         0.339


           ESTIMATED CORRELATION MATRIX FOR THE LATENT VARIABLES
              NHB           AGE65
              ________      ________
 NHB            1.000
 AGE65         -0.917         1.000


           S.E. FOR ESTIMATED CORRELATION MATRIX FOR THE LATENT VARIABLES
              NHB           AGE65
              ________      ________
 NHB            0.000
 AGE65          0.118         0.000


           EST./S.E. FOR ESTIMATED CORRELATION MATRIX FOR THE LATENT VARIABLES
              NHB           AGE65
              ________      ________
 NHB          999.000
 AGE65         -7.772       999.000


           TWO-TAILED P-VALUE FOR ESTIMATED CORRELATION MATRIX FOR THE LATENT VARIABLES
              NHB           AGE65
              ________      ________
 NHB            0.000
 AGE65          0.000         0.000


     ESTIMATES DERIVED FROM THE MODEL FOR PATTERN 2 2


           ESTIMATED MEANS FOR THE LATENT VARIABLES
              NHB           AGE65
              ________      ________
                0.616         0.281


           S.E. FOR ESTIMATED MEANS FOR THE LATENT VARIABLES
              NHB           AGE65
              ________      ________
                0.024         0.005


           EST./S.E. FOR ESTIMATED MEANS FOR THE LATENT VARIABLES
              NHB           AGE65
              ________      ________
               25.548        57.319


           TWO-TAILED P-VALUE FOR ESTIMATED MEANS FOR THE LATENT VARIABLES
              NHB           AGE65
              ________      ________
                0.000         0.000


           ESTIMATED COVARIANCE MATRIX FOR THE LATENT VARIABLES
              NHB           AGE65
              ________      ________
 NHB            0.038
 AGE65          0.001         0.002


           S.E. FOR ESTIMATED COVARIANCE MATRIX FOR THE LATENT VARIABLES
              NHB           AGE65
              ________      ________
 NHB            0.007
 AGE65          0.001         0.000


           EST./S.E. FOR ESTIMATED COVARIANCE MATRIX FOR THE LATENT VARIABLES
              NHB           AGE65
              ________      ________
 NHB            5.692
 AGE65          1.021         5.692


           TWO-TAILED P-VALUE FOR ESTIMATED COVARIANCE MATRIX FOR THE LATENT VARIABLES
              NHB           AGE65
              ________      ________
 NHB            0.000
 AGE65          0.307         0.000


           ESTIMATED CORRELATION MATRIX FOR THE LATENT VARIABLES
              NHB           AGE65
              ________      ________
 NHB            1.000
 AGE65          0.128         1.000


           S.E. FOR ESTIMATED CORRELATION MATRIX FOR THE LATENT VARIABLES
              NHB           AGE65
              ________      ________
 NHB            0.000
 AGE65          0.122         0.000


           EST./S.E. FOR ESTIMATED CORRELATION MATRIX FOR THE LATENT VARIABLES
              NHB           AGE65
              ________      ________
 NHB          999.000
 AGE65          1.046       999.000


           TWO-TAILED P-VALUE FOR ESTIMATED CORRELATION MATRIX FOR THE LATENT VARIABLES
              NHB           AGE65
              ________      ________
 NHB            0.000
 AGE65          0.296         0.000


SAVEDATA INFORMATION


  Save file
    nyc_ses_2_2_probs.txt

  Order of variables

    POVERTY
    FEM_HEAD
    SINGLE
    F_MP_JOB
    M_MP_JOB
    RENTAL
    CROWD
    UNMPLYD
    HS_DRPT
    PA
    NO_CAR
    INTERNET
    NHB
    AGE65
    CPROB1
    CPROB2
    CPROB3
    CPROB4
    DISADV
    ADV
    MLCJOINT
    MODZCTA

  Save file format           Free

  Save file record length    10000


     Beginning Time:  11:07:19
        Ending Time:  11:07:27
       Elapsed Time:  00:00:08



MUTHEN & MUTHEN
3463 Stoner Ave.
Los Angeles, CA  90066

Tel: (310) 391-9971
Fax: (310) 391-8971
Web: www.StatModel.com
Support: Support@StatModel.com

Copyright (c) 1998-2017 Muthen & Muthen
