Mplus VERSION 8 (Mac)
MUTHEN & MUTHEN
06/25/2020   3:31 PM

INPUT INSTRUCTIONS

  TITLE:	
  	NYC Comorbidities Model 3;
  	
  DATA:	
  	FILE = "~/Documents/Projects/10-COVID/COVID/NY-Corona/output/cities500_master_mplus.csv";
  		
  VARIABLE:	
  	NAMES ARE
  		MODZCTA arthrts cancer kidney copd chd casthma diabetes bphigh highchol stroke
  		csmoke obesity male white nhb hisp age65;
  	MISSING ARE ALL (-9999);
  	IDVARIABLE IS MODZCTA;
  	USEVARIABLES ARE
  		arthrts cancer kidney copd chd casthma diabetes bphigh highchol stroke
  		csmoke obesity nhb age65;

      CLASSES = com(3);

      ANALYSIS:
      		TYPE = MIXTURE;
          	STARTS = 250, 10;
          	
      MODEL:
          	%OVERALL%
          	com ON nhb age65;

      SAVEDATA:
          	FILE IS nyc_comorbids_3_probs.txt;
          	FORMAT IS FREE;
          	SAVE = CPROBABILITIES;

    OUTPUT:
        	tech4;
        	SVALUES;



*** WARNING in MODEL command
  Variable is uncorrelated with all other variables within class:  ARTHRTS
*** WARNING in MODEL command
  Variable is uncorrelated with all other variables within class:  CANCER
*** WARNING in MODEL command
  Variable is uncorrelated with all other variables within class:  KIDNEY
*** WARNING in MODEL command
  Variable is uncorrelated with all other variables within class:  COPD
*** WARNING in MODEL command
  Variable is uncorrelated with all other variables within class:  CHD
*** WARNING in MODEL command
  Variable is uncorrelated with all other variables within class:  CASTHMA
*** WARNING in MODEL command
  Variable is uncorrelated with all other variables within class:  DIABETES
*** WARNING in MODEL command
  Variable is uncorrelated with all other variables within class:  BPHIGH
*** WARNING in MODEL command
  Variable is uncorrelated with all other variables within class:  HIGHCHOL
*** WARNING in MODEL command
  Variable is uncorrelated with all other variables within class:  STROKE
*** WARNING in MODEL command
  Variable is uncorrelated with all other variables within class:  CSMOKE
*** WARNING in MODEL command
  Variable is uncorrelated with all other variables within class:  OBESITY
*** WARNING in MODEL command
  At least one variable is uncorrelated with all other variables within class.
  Check that this is what is intended.
  13 WARNING(S) FOUND IN THE INPUT INSTRUCTIONS




NYC Comorbidities Model 3;

SUMMARY OF ANALYSIS

Number of groups                                                 1
Number of observations                                         177

Number of dependent variables                                   12
Number of independent variables                                  2
Number of continuous latent variables                            0
Number of categorical latent variables                           1

Observed dependent variables

  Continuous
   ARTHRTS     CANCER      KIDNEY      COPD        CHD         CASTHMA
   DIABETES    BPHIGH      HIGHCHOL    STROKE      CSMOKE      OBESITY

Observed independent variables
   NHB         AGE65

Categorical latent variables
   COM

Variables with special functions

  ID variable           MODZCTA

Estimator                                                      MLR
Information matrix                                        OBSERVED
Optimization Specifications for the Quasi-Newton Algorithm for
Continuous Outcomes
  Maximum number of iterations                                 100
  Convergence criterion                                  0.100D-05
Optimization Specifications for the EM Algorithm
  Maximum number of iterations                                 500
  Convergence criteria
    Loglikelihood change                                 0.100D-06
    Relative loglikelihood change                        0.100D-06
    Derivative                                           0.100D-05
Optimization Specifications for the M step of the EM Algorithm for
Categorical Latent variables
  Number of M step iterations                                    1
  M step convergence criterion                           0.100D-05
  Basis for M step termination                           ITERATION
Optimization Specifications for the M step of the EM Algorithm for
Censored, Binary or Ordered Categorical (Ordinal), Unordered
Categorical (Nominal) and Count Outcomes
  Number of M step iterations                                    1
  M step convergence criterion                           0.100D-05
  Basis for M step termination                           ITERATION
  Maximum value for logit thresholds                            15
  Minimum value for logit thresholds                           -15
  Minimum expected cell size for chi-square              0.100D-01
Maximum number of iterations for H1                           2000
Convergence criterion for H1                             0.100D-03
Optimization algorithm                                         EMA
Random Starts Specifications
  Number of initial stage random starts                        250
  Number of final stage optimizations                           10
  Number of initial stage iterations                            10
  Initial stage convergence criterion                    0.100D+01
  Random starts scale                                    0.500D+01
  Random seed for generating random starts                       0

Input data file(s)
  ~/Documents/Projects/10-COVID/COVID/NY-Corona/output/cities500_master_mplus.cs
Input data format  FREE


SUMMARY OF DATA

     Number of missing data patterns             1
     Number of y missing data patterns           1
     Number of u missing data patterns           0


COVARIANCE COVERAGE OF DATA

Minimum covariance coverage value   0.100


     PROPORTION OF DATA PRESENT FOR Y


           Covariance Coverage
              ARTHRTS       CANCER        KIDNEY        COPD          CHD
              ________      ________      ________      ________      ________
 ARTHRTS        1.000
 CANCER         1.000         1.000
 KIDNEY         1.000         1.000         1.000
 COPD           1.000         1.000         1.000         1.000
 CHD            1.000         1.000         1.000         1.000         1.000
 CASTHMA        1.000         1.000         1.000         1.000         1.000
 DIABETES       1.000         1.000         1.000         1.000         1.000
 BPHIGH         1.000         1.000         1.000         1.000         1.000
 HIGHCHOL       1.000         1.000         1.000         1.000         1.000
 STROKE         1.000         1.000         1.000         1.000         1.000
 CSMOKE         1.000         1.000         1.000         1.000         1.000
 OBESITY        1.000         1.000         1.000         1.000         1.000
 NHB            1.000         1.000         1.000         1.000         1.000
 AGE65          1.000         1.000         1.000         1.000         1.000


           Covariance Coverage
              CASTHMA       DIABETES      BPHIGH        HIGHCHOL      STROKE
              ________      ________      ________      ________      ________
 CASTHMA        1.000
 DIABETES       1.000         1.000
 BPHIGH         1.000         1.000         1.000
 HIGHCHOL       1.000         1.000         1.000         1.000
 STROKE         1.000         1.000         1.000         1.000         1.000
 CSMOKE         1.000         1.000         1.000         1.000         1.000
 OBESITY        1.000         1.000         1.000         1.000         1.000
 NHB            1.000         1.000         1.000         1.000         1.000
 AGE65          1.000         1.000         1.000         1.000         1.000


           Covariance Coverage
              CSMOKE        OBESITY       NHB           AGE65
              ________      ________      ________      ________
 CSMOKE         1.000
 OBESITY        1.000         1.000
 NHB            1.000         1.000         1.000
 AGE65          1.000         1.000         1.000         1.000



UNIVARIATE SAMPLE STATISTICS


     UNIVARIATE HIGHER-ORDER MOMENT DESCRIPTIVE STATISTICS

         Variable/         Mean/     Skewness/   Minimum/ % with                Percentiles
        Sample Size      Variance    Kurtosis    Maximum  Min/Max      20%/60%    40%/80%    Median

     ARTHRTS               0.436      -1.165       0.245    0.56%       0.402      0.429      0.444
             177.000       0.002       2.607       0.533    0.56%       0.453      0.472
     CANCER                0.232       0.059       0.153    0.56%       0.213      0.223      0.229
             177.000       0.001       0.354       0.307    0.56%       0.235      0.254
     KIDNEY                0.170      -0.820       0.095    0.56%       0.155      0.169      0.172
             177.000       0.000       1.384       0.216    0.56%       0.176      0.186
     COPD                  0.229      -0.926       0.114    0.56%       0.208      0.229      0.235
             177.000       0.001       1.073       0.301    0.56%       0.242      0.255
     CHD                   0.227      -1.418       0.100    0.56%       0.208      0.229      0.234
             177.000       0.001       3.474       0.296    0.56%       0.236      0.248
     CASTHMA               0.308       0.346       0.270    0.56%       0.284      0.299      0.303
             177.000       0.001      -1.051       0.362    0.56%       0.311      0.336
     DIABETES              0.318      -1.002       0.141    0.56%       0.282      0.320      0.326
             177.000       0.003       0.884       0.408    0.56%       0.338      0.361
     BPHIGH                0.520      -0.810       0.303    0.56%       0.473      0.511      0.522
             177.000       0.004       1.253       0.650    0.56%       0.537      0.573
     HIGHCHOL              0.553      -1.706       0.388    0.56%       0.532      0.552      0.561
             177.000       0.001       4.952       0.614    0.56%       0.566      0.578
     STROKE                0.169      -0.715       0.077    0.56%       0.150      0.167      0.172
             177.000       0.001       0.913       0.234    0.56%       0.177      0.192
     CSMOKE                0.391      -0.575       0.276    0.56%       0.342      0.389      0.402
             177.000       0.002      -0.503       0.478    0.56%       0.408      0.428
     OBESITY               0.483      -0.206       0.329    0.56%       0.426      0.468      0.484
             177.000       0.005      -0.749       0.610    0.56%       0.504      0.550
     NHB                   0.371       0.740       0.054    0.56%       0.149      0.236      0.279
             177.000       0.059      -0.621       0.938    0.56%       0.374      0.593
     AGE65                 0.297      -0.746       0.045    0.56%       0.260      0.283      0.296
             177.000       0.003       2.803       0.411    0.56%       0.308      0.337

RANDOM STARTS RESULTS RANKED FROM THE BEST TO THE WORST LOGLIKELIHOOD VALUES

Final stage loglikelihood values at local maxima, seeds, and initial stage start numbers:

            5127.469  499150           216
            5127.469  464179           106
            5127.469  unperturbed      0
            5127.469  603842           61
            5127.469  136842           58

5 perturbed starting value run(s) did not converge.



THE BEST LOGLIKELIHOOD VALUE HAS BEEN REPLICATED.  RERUN WITH AT LEAST TWICE THE
RANDOM STARTS TO CHECK THAT THE BEST LOGLIKELIHOOD IS STILL OBTAINED AND REPLICATED.


THE MODEL ESTIMATION TERMINATED NORMALLY



MODEL FIT INFORMATION

Number of Free Parameters                       54

Loglikelihood

          H0 Value                        5127.469
          H0 Scaling Correction Factor      1.3808
            for MLR

Information Criteria

          Akaike (AIC)                  -10146.937
          Bayesian (BIC)                 -9975.425
          Sample-Size Adjusted BIC      -10146.433
            (n* = (n + 2) / 24)



FINAL CLASS COUNTS AND PROPORTIONS FOR THE LATENT CLASSES
BASED ON THE ESTIMATED MODEL

    Latent
   Classes

       1         31.79493          0.17963
       2         53.24535          0.30082
       3         91.95972          0.51955


FINAL CLASS COUNTS AND PROPORTIONS FOR THE LATENT CLASSES
BASED ON ESTIMATED POSTERIOR PROBABILITIES

    Latent
   Classes

       1         31.79493          0.17963
       2         53.24535          0.30082
       3         91.95972          0.51955


FINAL CLASS COUNTS AND PROPORTIONS FOR THE LATENT CLASSES
BASED ON THEIR MOST LIKELY LATENT CLASS MEMBERSHIP

Class Counts and Proportions

    Latent
   Classes

       1               32          0.18079
       2               53          0.29944
       3               92          0.51977


CLASSIFICATION QUALITY

     Entropy                         0.969


Average Latent Class Probabilities for Most Likely Latent Class Membership (Row)
by Latent Class (Column)

           1        2        3

    1   0.994    0.000    0.006
    2   0.000    0.980    0.020
    3   0.000    0.014    0.986


Classification Probabilities for the Most Likely Latent Class Membership (Column)
by Latent Class (Row)

           1        2        3

    1   1.000    0.000    0.000
    2   0.000    0.976    0.024
    3   0.002    0.011    0.986


Logits for the Classification Probabilities for the Most Likely Latent Class Membership (Column)
by Latent Class (Row)

              1        2        3

    1     10.019   -3.796    0.000
    2    -10.094    3.697    0.000
    3     -6.085   -4.465    0.000


MODEL RESULTS

                                                    Two-Tailed
                    Estimate       S.E.  Est./S.E.    P-Value

Latent Class 1

 Means
    ARTHRTS            0.368      0.010     38.579      0.000
    CANCER             0.228      0.006     35.486      0.000
    KIDNEY             0.137      0.003     42.651      0.000
    COPD               0.174      0.004     38.983      0.000
    CHD                0.178      0.006     30.938      0.000
    CASTHMA            0.283      0.001    193.063      0.000
    DIABETES           0.229      0.007     33.565      0.000
    BPHIGH             0.427      0.009     45.936      0.000
    HIGHCHOL           0.500      0.008     62.494      0.000
    STROKE             0.126      0.004     32.877      0.000
    CSMOKE             0.314      0.004     75.806      0.000
    OBESITY            0.378      0.006     60.923      0.000

 Variances
    ARTHRTS            0.001      0.000      7.777      0.000
    CANCER             0.001      0.000      8.523      0.000
    KIDNEY             0.000      0.000      6.743      0.000
    COPD               0.000      0.000      8.004      0.000
    CHD                0.000      0.000      6.115      0.000
    CASTHMA            0.000      0.000      9.353      0.000
    DIABETES           0.001      0.000      6.631      0.000
    BPHIGH             0.001      0.000      5.729      0.000
    HIGHCHOL           0.001      0.000      5.596      0.000
    STROKE             0.000      0.000      6.855      0.000
    CSMOKE             0.001      0.000      9.329      0.000
    OBESITY            0.001      0.000      8.451      0.000

Latent Class 2

 Means
    ARTHRTS            0.461      0.004    111.932      0.000
    CANCER             0.223      0.003     83.453      0.000
    KIDNEY             0.190      0.002     89.227      0.000
    COPD               0.255      0.003     86.181      0.000
    CHD                0.244      0.003     89.779      0.000
    CASTHMA            0.337      0.003    117.057      0.000
    DIABETES           0.365      0.004     92.709      0.000
    BPHIGH             0.581      0.007     82.588      0.000
    HIGHCHOL           0.560      0.002    226.819      0.000
    STROKE             0.196      0.003     70.616      0.000
    CSMOKE             0.432      0.003    124.404      0.000
    OBESITY            0.559      0.008     72.157      0.000

 Variances
    ARTHRTS            0.001      0.000      7.777      0.000
    CANCER             0.001      0.000      8.523      0.000
    KIDNEY             0.000      0.000      6.743      0.000
    COPD               0.000      0.000      8.004      0.000
    CHD                0.000      0.000      6.115      0.000
    CASTHMA            0.000      0.000      9.353      0.000
    DIABETES           0.001      0.000      6.631      0.000
    BPHIGH             0.001      0.000      5.729      0.000
    HIGHCHOL           0.001      0.000      5.596      0.000
    STROKE             0.000      0.000      6.855      0.000
    CSMOKE             0.001      0.000      9.329      0.000
    OBESITY            0.001      0.000      8.451      0.000

Latent Class 3

 Means
    ARTHRTS            0.445      0.004    119.476      0.000
    CANCER             0.239      0.003     84.507      0.000
    KIDNEY             0.170      0.001    131.941      0.000
    COPD               0.233      0.002    106.580      0.000
    CHD                0.234      0.002    127.410      0.000
    CASTHMA            0.299      0.002    140.144      0.000
    DIABETES           0.322      0.003     96.337      0.000
    BPHIGH             0.517      0.003    150.045      0.000
    HIGHCHOL           0.566      0.003    213.751      0.000
    STROKE             0.168      0.002     98.629      0.000
    CSMOKE             0.393      0.005     87.325      0.000
    OBESITY            0.475      0.005     88.517      0.000

 Variances
    ARTHRTS            0.001      0.000      7.777      0.000
    CANCER             0.001      0.000      8.523      0.000
    KIDNEY             0.000      0.000      6.743      0.000
    COPD               0.000      0.000      8.004      0.000
    CHD                0.000      0.000      6.115      0.000
    CASTHMA            0.000      0.000      9.353      0.000
    DIABETES           0.001      0.000      6.631      0.000
    BPHIGH             0.001      0.000      5.729      0.000
    HIGHCHOL           0.001      0.000      5.596      0.000
    STROKE             0.000      0.000      6.855      0.000
    CSMOKE             0.001      0.000      9.329      0.000
    OBESITY            0.001      0.000      8.451      0.000

Categorical Latent Variables

 COM#1      ON
    NHB               -5.552      1.920     -2.892      0.004
    AGE65            -11.248      4.146     -2.713      0.007

 COM#2      ON
    NHB               12.719      2.405      5.289      0.000
    AGE65            -14.769      9.809     -1.506      0.132

 Intercepts
    COM#1              3.557      1.301      2.734      0.006
    COM#2             -2.159      2.518     -0.858      0.391


LOGISTIC REGRESSION ODDS RATIO RESULTS

Categorical Latent Variables

 COM#1    ON
    NHB                0.004
    AGE65              0.000

 COM#2    ON
    NHB            *********
    AGE65              0.000


ALTERNATIVE PARAMETERIZATIONS FOR THE CATEGORICAL LATENT VARIABLE REGRESSION

Parameterization using Reference Class 1

 COM#2    ON
    NHB               18.271      3.078      5.936      0.000
    AGE65             -3.521     10.013     -0.352      0.725

 COM#3    ON
    NHB                5.552      1.920      2.892      0.004
    AGE65             11.248      4.146      2.713      0.007

 Intercepts
    COM#2             -5.717      2.592     -2.206      0.027
    COM#3             -3.557      1.301     -2.734      0.006

Parameterization using Reference Class 2

 COM#1    ON
    NHB              -18.271      3.078     -5.936      0.000
    AGE65              3.521     10.013      0.352      0.725

 COM#3    ON
    NHB              -12.719      2.405     -5.289      0.000
    AGE65             14.769      9.809      1.506      0.132

 Intercepts
    COM#1              5.717      2.592      2.206      0.027
    COM#3              2.159      2.518      0.858      0.391


QUALITY OF NUMERICAL RESULTS

     Condition Number for the Information Matrix              0.733E-09
       (ratio of smallest to largest eigenvalue)


MODEL COMMAND WITH FINAL ESTIMATES USED AS STARTING VALUES

     %OVERALL%

     com#1 ON nhb*-5.55219;
     com#1 ON age65*-11.24820;
     com#2 ON nhb*12.71904;
     com#2 ON age65*-14.76918;

     [ com#1*3.55735 ];
     [ com#2*-2.15930 ];

     %COM#1%

     [ arthrts*0.36796 ];
     [ cancer*0.22812 ];
     [ kidney*0.13701 ];
     [ copd*0.17362 ];
     [ chd*0.17836 ];
     [ casthma*0.28336 ];
     [ diabetes*0.22926 ];
     [ bphigh*0.42708 ];
     [ highchol*0.50027 ];
     [ stroke*0.12622 ];
     [ csmoke*0.31449 ];
     [ obesity*0.37763 ];

     arthrts*0.00115 (13);
     cancer*0.00061 (14);
     kidney*0.00011 (15);
     copd*0.00030 (16);
     chd*0.00036 (17);
     casthma*0.00012 (18);
     diabetes*0.00054 (19);
     bphigh*0.00088 (20);
     highchol*0.00067 (21);
     stroke*0.00016 (22);
     csmoke*0.00068 (23);
     obesity*0.00115 (24);

     %COM#2%

     [ arthrts*0.46089 ];
     [ cancer*0.22325 ];
     [ kidney*0.18974 ];
     [ copd*0.25468 ];
     [ chd*0.24432 ];
     [ casthma*0.33672 ];
     [ diabetes*0.36512 ];
     [ bphigh*0.58085 ];
     [ highchol*0.56046 ];
     [ stroke*0.19620 ];
     [ csmoke*0.43220 ];
     [ obesity*0.55921 ];

     arthrts*0.00115 (13);
     cancer*0.00061 (14);
     kidney*0.00011 (15);
     copd*0.00030 (16);
     chd*0.00036 (17);
     casthma*0.00012 (18);
     diabetes*0.00054 (19);
     bphigh*0.00088 (20);
     highchol*0.00067 (21);
     stroke*0.00016 (22);
     csmoke*0.00068 (23);
     obesity*0.00115 (24);

     %COM#3%

     [ arthrts*0.44469 ];
     [ cancer*0.23897 ];
     [ kidney*0.16986 ];
     [ copd*0.23339 ];
     [ chd*0.23382 ];
     [ casthma*0.29942 ];
     [ diabetes*0.32177 ];
     [ bphigh*0.51691 ];
     [ highchol*0.56619 ];
     [ stroke*0.16817 ];
     [ csmoke*0.39347 ];
     [ obesity*0.47465 ];

     arthrts*0.00115 (13);
     cancer*0.00061 (14);
     kidney*0.00011 (15);
     copd*0.00030 (16);
     chd*0.00036 (17);
     casthma*0.00012 (18);
     diabetes*0.00054 (19);
     bphigh*0.00088 (20);
     highchol*0.00067 (21);
     stroke*0.00016 (22);
     csmoke*0.00068 (23);
     obesity*0.00115 (24);



TECHNICAL 4 OUTPUT


     ESTIMATES DERIVED FROM THE MODEL FOR CLASS 1


           ESTIMATED MEANS FOR THE LATENT VARIABLES
              NHB           AGE65
              ________      ________
                0.194         0.282


           S.E. FOR ESTIMATED MEANS FOR THE LATENT VARIABLES
              NHB           AGE65
              ________      ________
                0.013         0.015


           EST./S.E. FOR ESTIMATED MEANS FOR THE LATENT VARIABLES
              NHB           AGE65
              ________      ________
               14.584        19.341


           TWO-TAILED P-VALUE FOR ESTIMATED MEANS FOR THE LATENT VARIABLES
              NHB           AGE65
              ________      ________
                0.000         0.000


           ESTIMATED COVARIANCE MATRIX FOR THE LATENT VARIABLES
              NHB           AGE65
              ________      ________
 NHB            0.006
 AGE65          0.000         0.007


           S.E. FOR ESTIMATED COVARIANCE MATRIX FOR THE LATENT VARIABLES
              NHB           AGE65
              ________      ________
 NHB            0.001
 AGE65          0.001         0.002


           EST./S.E. FOR ESTIMATED COVARIANCE MATRIX FOR THE LATENT VARIABLES
              NHB           AGE65
              ________      ________
 NHB            3.987
 AGE65         -0.094         3.987


           TWO-TAILED P-VALUE FOR ESTIMATED COVARIANCE MATRIX FOR THE LATENT VARIABLES
              NHB           AGE65
              ________      ________
 NHB            0.000
 AGE65          0.925         0.000


           ESTIMATED CORRELATION MATRIX FOR THE LATENT VARIABLES
              NHB           AGE65
              ________      ________
 NHB            1.000
 AGE65         -0.017         1.000


           S.E. FOR ESTIMATED CORRELATION MATRIX FOR THE LATENT VARIABLES
              NHB           AGE65
              ________      ________
 NHB            0.000
 AGE65          0.177         0.000


           EST./S.E. FOR ESTIMATED CORRELATION MATRIX FOR THE LATENT VARIABLES
              NHB           AGE65
              ________      ________
 NHB          999.000
 AGE65         -0.094       999.000


           TWO-TAILED P-VALUE FOR ESTIMATED CORRELATION MATRIX FOR THE LATENT VARIABLES
              NHB           AGE65
              ________      ________
 NHB            0.000
 AGE65          0.925         0.000


     ESTIMATES DERIVED FROM THE MODEL FOR CLASS 2


           ESTIMATED MEANS FOR THE LATENT VARIABLES
              NHB           AGE65
              ________      ________
                0.667         0.280


           S.E. FOR ESTIMATED MEANS FOR THE LATENT VARIABLES
              NHB           AGE65
              ________      ________
                0.023         0.005


           EST./S.E. FOR ESTIMATED MEANS FOR THE LATENT VARIABLES
              NHB           AGE65
              ________      ________
               28.441        52.340


           TWO-TAILED P-VALUE FOR ESTIMATED MEANS FOR THE LATENT VARIABLES
              NHB           AGE65
              ________      ________
                0.000         0.000


           ESTIMATED COVARIANCE MATRIX FOR THE LATENT VARIABLES
              NHB           AGE65
              ________      ________
 NHB            0.029
 AGE65          0.002         0.002


           S.E. FOR ESTIMATED COVARIANCE MATRIX FOR THE LATENT VARIABLES
              NHB           AGE65
              ________      ________
 NHB            0.006
 AGE65          0.001         0.000


           EST./S.E. FOR ESTIMATED COVARIANCE MATRIX FOR THE LATENT VARIABLES
              NHB           AGE65
              ________      ________
 NHB            5.160
 AGE65          2.286         5.160


           TWO-TAILED P-VALUE FOR ESTIMATED COVARIANCE MATRIX FOR THE LATENT VARIABLES
              NHB           AGE65
              ________      ________
 NHB            0.000
 AGE65          0.022         0.000


           ESTIMATED CORRELATION MATRIX FOR THE LATENT VARIABLES
              NHB           AGE65
              ________      ________
 NHB            1.000
 AGE65          0.330         1.000


           S.E. FOR ESTIMATED CORRELATION MATRIX FOR THE LATENT VARIABLES
              NHB           AGE65
              ________      ________
 NHB            0.000
 AGE65          0.122         0.000


           EST./S.E. FOR ESTIMATED CORRELATION MATRIX FOR THE LATENT VARIABLES
              NHB           AGE65
              ________      ________
 NHB          999.000
 AGE65          2.702       999.000


           TWO-TAILED P-VALUE FOR ESTIMATED CORRELATION MATRIX FOR THE LATENT VARIABLES
              NHB           AGE65
              ________      ________
 NHB            0.000
 AGE65          0.007         0.000


     ESTIMATES DERIVED FROM THE MODEL FOR CLASS 3


           ESTIMATED MEANS FOR THE LATENT VARIABLES
              NHB           AGE65
              ________      ________
                0.261         0.312


           S.E. FOR ESTIMATED MEANS FOR THE LATENT VARIABLES
              NHB           AGE65
              ________      ________
                0.015         0.004


           EST./S.E. FOR ESTIMATED MEANS FOR THE LATENT VARIABLES
              NHB           AGE65
              ________      ________
               17.028        74.409


           TWO-TAILED P-VALUE FOR ESTIMATED MEANS FOR THE LATENT VARIABLES
              NHB           AGE65
              ________      ________
                0.000         0.000


           ESTIMATED COVARIANCE MATRIX FOR THE LATENT VARIABLES
              NHB           AGE65
              ________      ________
 NHB            0.022
 AGE65         -0.002         0.002


           S.E. FOR ESTIMATED COVARIANCE MATRIX FOR THE LATENT VARIABLES
              NHB           AGE65
              ________      ________
 NHB            0.003
 AGE65          0.001         0.000


           EST./S.E. FOR ESTIMATED COVARIANCE MATRIX FOR THE LATENT VARIABLES
              NHB           AGE65
              ________      ________
 NHB            6.781
 AGE65         -3.154         6.781


           TWO-TAILED P-VALUE FOR ESTIMATED COVARIANCE MATRIX FOR THE LATENT VARIABLES
              NHB           AGE65
              ________      ________
 NHB            0.000
 AGE65          0.002         0.000


           ESTIMATED CORRELATION MATRIX FOR THE LATENT VARIABLES
              NHB           AGE65
              ________      ________
 NHB            1.000
 AGE65         -0.348         1.000


           S.E. FOR ESTIMATED CORRELATION MATRIX FOR THE LATENT VARIABLES
              NHB           AGE65
              ________      ________
 NHB            0.000
 AGE65          0.092         0.000


           EST./S.E. FOR ESTIMATED CORRELATION MATRIX FOR THE LATENT VARIABLES
              NHB           AGE65
              ________      ________
 NHB          999.000
 AGE65         -3.801       999.000


           TWO-TAILED P-VALUE FOR ESTIMATED CORRELATION MATRIX FOR THE LATENT VARIABLES
              NHB           AGE65
              ________      ________
 NHB            0.000
 AGE65          0.000         0.000


SAVEDATA INFORMATION


  Save file
    nyc_comorbids_3_probs.txt

  Order of variables

    ARTHRTS
    CANCER
    KIDNEY
    COPD
    CHD
    CASTHMA
    DIABETES
    BPHIGH
    HIGHCHOL
    STROKE
    CSMOKE
    OBESITY
    NHB
    AGE65
    CPROB1
    CPROB2
    CPROB3
    COM
    MODZCTA

  Save file format           Free

  Save file record length    10000


     Beginning Time:  15:31:29
        Ending Time:  15:31:46
       Elapsed Time:  00:00:17



MUTHEN & MUTHEN
3463 Stoner Ave.
Los Angeles, CA  90066

Tel: (310) 391-9971
Fax: (310) 391-8971
Web: www.StatModel.com
Support: Support@StatModel.com

Copyright (c) 1998-2017 Muthen & Muthen
