TITLE:	
	NYC Comorbidities Model 7;
	
DATA:	
	FILE = "~/Documents/Projects/10-COVID/COVID/NY-Corona/output/cities500_master_mplus.csv";
		
VARIABLE:	
	NAMES ARE
		MODZCTA arthrts cancer kidney copd chd casthma diabetes bphigh highchol stroke 
		csmoke obesity male white nhb hisp age65;
	MISSING ARE ALL (-9999);
	IDVARIABLE IS MODZCTA;
	USEVARIABLES ARE
		arthrts cancer kidney copd chd casthma diabetes bphigh highchol stroke 
		csmoke obesity nhb age65;

    CLASSES = com(7);

    ANALYSIS:
    		TYPE = MIXTURE;
            ITERATIONS=10000;
        	STARTS = 500, 10;
        	
    MODEL:
        	%OVERALL%
        	com ON nhb age65;

    SAVEDATA:
        	FILE IS nyc_comorbids_7_probs.txt;
        	FORMAT IS FREE;
        	SAVE = CPROBABILITIES;

  OUTPUT:
      	tech4;
      	SVALUES;