Mplus VERSION 8 (Mac)
MUTHEN & MUTHEN
06/24/2020   6:03 PM

INPUT INSTRUCTIONS

  TITLE:	
  	NYC Comorbidities Model 6;
  	
  DATA:	
  	FILE = "~/Documents/Projects/10-COVID/COVID/NY-Corona/output/cities500_master_mplus.csv";
  		
  VARIABLE:	
  	NAMES ARE
  		MODZCTA arthrts cancer kidney copd chd casthma diabetes bphigh highchol stroke
  		csmoke obesity male white nhb hisp age65;
  	MISSING ARE ALL (-9999);
  	IDVARIABLE IS MODZCTA;
  	USEVARIABLES ARE
  		arthrts cancer kidney copd chd casthma diabetes bphigh highchol stroke
  		csmoke obesity nhb age65;

      CLASSES = com(6);

      ANALYSIS:
      		TYPE = MIXTURE;
      		ITERATIONS=10000;
          	STARTS = 500, 10;
          	
      MODEL:
          	%OVERALL%
          	com ON nhb age65;

      SAVEDATA:
          	FILE IS nyc_comorbids_6_probs.txt;
          	FORMAT IS FREE;
          	SAVE = CPROBABILITIES;

    OUTPUT:
        	tech4;
        	SVALUES;



*** WARNING in MODEL command
  Variable is uncorrelated with all other variables within class:  ARTHRTS
*** WARNING in MODEL command
  Variable is uncorrelated with all other variables within class:  CANCER
*** WARNING in MODEL command
  Variable is uncorrelated with all other variables within class:  KIDNEY
*** WARNING in MODEL command
  Variable is uncorrelated with all other variables within class:  COPD
*** WARNING in MODEL command
  Variable is uncorrelated with all other variables within class:  CHD
*** WARNING in MODEL command
  Variable is uncorrelated with all other variables within class:  CASTHMA
*** WARNING in MODEL command
  Variable is uncorrelated with all other variables within class:  DIABETES
*** WARNING in MODEL command
  Variable is uncorrelated with all other variables within class:  BPHIGH
*** WARNING in MODEL command
  Variable is uncorrelated with all other variables within class:  HIGHCHOL
*** WARNING in MODEL command
  Variable is uncorrelated with all other variables within class:  STROKE
*** WARNING in MODEL command
  Variable is uncorrelated with all other variables within class:  CSMOKE
*** WARNING in MODEL command
  Variable is uncorrelated with all other variables within class:  OBESITY
*** WARNING in MODEL command
  At least one variable is uncorrelated with all other variables within class.
  Check that this is what is intended.
  13 WARNING(S) FOUND IN THE INPUT INSTRUCTIONS




NYC Comorbidities Model 6;

SUMMARY OF ANALYSIS

Number of groups                                                 1
Number of observations                                         177

Number of dependent variables                                   12
Number of independent variables                                  2
Number of continuous latent variables                            0
Number of categorical latent variables                           1

Observed dependent variables

  Continuous
   ARTHRTS     CANCER      KIDNEY      COPD        CHD         CASTHMA
   DIABETES    BPHIGH      HIGHCHOL    STROKE      CSMOKE      OBESITY

Observed independent variables
   NHB         AGE65

Categorical latent variables
   COM

Variables with special functions

  ID variable           MODZCTA

Estimator                                                      MLR
Information matrix                                        OBSERVED
Optimization Specifications for the Quasi-Newton Algorithm for
Continuous Outcomes
  Maximum number of iterations                               10000
  Convergence criterion                                  0.100D-05
Optimization Specifications for the EM Algorithm
  Maximum number of iterations                                 500
  Convergence criteria
    Loglikelihood change                                 0.100D-06
    Relative loglikelihood change                        0.100D-06
    Derivative                                           0.100D-05
Optimization Specifications for the M step of the EM Algorithm for
Categorical Latent variables
  Number of M step iterations                                    1
  M step convergence criterion                           0.100D-05
  Basis for M step termination                           ITERATION
Optimization Specifications for the M step of the EM Algorithm for
Censored, Binary or Ordered Categorical (Ordinal), Unordered
Categorical (Nominal) and Count Outcomes
  Number of M step iterations                                    1
  M step convergence criterion                           0.100D-05
  Basis for M step termination                           ITERATION
  Maximum value for logit thresholds                            15
  Minimum value for logit thresholds                           -15
  Minimum expected cell size for chi-square              0.100D-01
Maximum number of iterations for H1                           2000
Convergence criterion for H1                             0.100D-03
Optimization algorithm                                         EMA
Random Starts Specifications
  Number of initial stage random starts                        500
  Number of final stage optimizations                           10
  Number of initial stage iterations                            10
  Initial stage convergence criterion                    0.100D+01
  Random starts scale                                    0.500D+01
  Random seed for generating random starts                       0

Input data file(s)
  ~/Documents/Projects/10-COVID/COVID/NY-Corona/output/cities500_master_mplus.cs
Input data format  FREE


SUMMARY OF DATA

     Number of missing data patterns             1
     Number of y missing data patterns           1
     Number of u missing data patterns           0


COVARIANCE COVERAGE OF DATA

Minimum covariance coverage value   0.100


     PROPORTION OF DATA PRESENT FOR Y


           Covariance Coverage
              ARTHRTS       CANCER        KIDNEY        COPD          CHD
              ________      ________      ________      ________      ________
 ARTHRTS        1.000
 CANCER         1.000         1.000
 KIDNEY         1.000         1.000         1.000
 COPD           1.000         1.000         1.000         1.000
 CHD            1.000         1.000         1.000         1.000         1.000
 CASTHMA        1.000         1.000         1.000         1.000         1.000
 DIABETES       1.000         1.000         1.000         1.000         1.000
 BPHIGH         1.000         1.000         1.000         1.000         1.000
 HIGHCHOL       1.000         1.000         1.000         1.000         1.000
 STROKE         1.000         1.000         1.000         1.000         1.000
 CSMOKE         1.000         1.000         1.000         1.000         1.000
 OBESITY        1.000         1.000         1.000         1.000         1.000
 NHB            1.000         1.000         1.000         1.000         1.000
 AGE65          1.000         1.000         1.000         1.000         1.000


           Covariance Coverage
              CASTHMA       DIABETES      BPHIGH        HIGHCHOL      STROKE
              ________      ________      ________      ________      ________
 CASTHMA        1.000
 DIABETES       1.000         1.000
 BPHIGH         1.000         1.000         1.000
 HIGHCHOL       1.000         1.000         1.000         1.000
 STROKE         1.000         1.000         1.000         1.000         1.000
 CSMOKE         1.000         1.000         1.000         1.000         1.000
 OBESITY        1.000         1.000         1.000         1.000         1.000
 NHB            1.000         1.000         1.000         1.000         1.000
 AGE65          1.000         1.000         1.000         1.000         1.000


           Covariance Coverage
              CSMOKE        OBESITY       NHB           AGE65
              ________      ________      ________      ________
 CSMOKE         1.000
 OBESITY        1.000         1.000
 NHB            1.000         1.000         1.000
 AGE65          1.000         1.000         1.000         1.000



UNIVARIATE SAMPLE STATISTICS


     UNIVARIATE HIGHER-ORDER MOMENT DESCRIPTIVE STATISTICS

         Variable/         Mean/     Skewness/   Minimum/ % with                Percentiles
        Sample Size      Variance    Kurtosis    Maximum  Min/Max      20%/60%    40%/80%    Median

     ARTHRTS               0.436      -1.165       0.245    0.56%       0.402      0.429      0.444
             177.000       0.002       2.607       0.533    0.56%       0.453      0.472
     CANCER                0.232       0.059       0.153    0.56%       0.213      0.223      0.229
             177.000       0.001       0.354       0.307    0.56%       0.235      0.254
     KIDNEY                0.170      -0.820       0.095    0.56%       0.155      0.169      0.172
             177.000       0.000       1.384       0.216    0.56%       0.176      0.186
     COPD                  0.229      -0.926       0.114    0.56%       0.208      0.229      0.235
             177.000       0.001       1.073       0.301    0.56%       0.242      0.255
     CHD                   0.227      -1.418       0.100    0.56%       0.208      0.229      0.234
             177.000       0.001       3.474       0.296    0.56%       0.236      0.248
     CASTHMA               0.308       0.346       0.270    0.56%       0.284      0.299      0.303
             177.000       0.001      -1.051       0.362    0.56%       0.311      0.336
     DIABETES              0.318      -1.002       0.141    0.56%       0.282      0.320      0.326
             177.000       0.003       0.884       0.408    0.56%       0.338      0.361
     BPHIGH                0.520      -0.810       0.303    0.56%       0.473      0.511      0.522
             177.000       0.004       1.253       0.650    0.56%       0.537      0.573
     HIGHCHOL              0.553      -1.706       0.388    0.56%       0.532      0.552      0.561
             177.000       0.001       4.952       0.614    0.56%       0.566      0.578
     STROKE                0.169      -0.715       0.077    0.56%       0.150      0.167      0.172
             177.000       0.001       0.913       0.234    0.56%       0.177      0.192
     CSMOKE                0.391      -0.575       0.276    0.56%       0.342      0.389      0.402
             177.000       0.002      -0.503       0.478    0.56%       0.408      0.428
     OBESITY               0.483      -0.206       0.329    0.56%       0.426      0.468      0.484
             177.000       0.005      -0.749       0.610    0.56%       0.504      0.550
     NHB                   0.371       0.740       0.054    0.56%       0.149      0.236      0.279
             177.000       0.059      -0.621       0.938    0.56%       0.374      0.593
     AGE65                 0.297      -0.746       0.045    0.56%       0.260      0.283      0.296
             177.000       0.003       2.803       0.411    0.56%       0.308      0.337

RANDOM STARTS RESULTS RANKED FROM THE BEST TO THE WORST LOGLIKELIHOOD VALUES

Final stage loglikelihood values at local maxima, seeds, and initial stage start numbers:


Unperturbed starting value run did not converge.

9 perturbed starting value run(s) did not converge.


     THE MODEL ESTIMATION DID NOT TERMINATE NORMALLY DUE TO AN INSUFFICIENT
     NUMBER OF E STEPS.  INCREASE THE NUMBER OF MITERATIONS.  ESTIMATES
     CANNOT BE TRUSTED.






FINAL CLASS COUNTS AND PROPORTIONS FOR THE LATENT CLASSES
BASED ON THE ESTIMATED MODEL

    Latent
   Classes

       1          7.00000          0.03955
       2         39.89878          0.22542
       3         33.85826          0.19129
       4         24.89939          0.14067
       5         36.10976          0.20401
       6         35.23382          0.19906


FINAL CLASS COUNTS AND PROPORTIONS FOR THE LATENT CLASSES
BASED ON ESTIMATED POSTERIOR PROBABILITIES

    Latent
   Classes

       1          7.00000          0.03955
       2         39.89878          0.22542
       3         33.85826          0.19129
       4         24.89939          0.14067
       5         36.10976          0.20401
       6         35.23382          0.19906


FINAL CLASS COUNTS AND PROPORTIONS FOR THE LATENT CLASSES
BASED ON THEIR MOST LIKELY LATENT CLASS MEMBERSHIP

Class Counts and Proportions

    Latent
   Classes

       1                7          0.03955
       2               39          0.22034
       3               34          0.19209
       4               25          0.14124
       5               37          0.20904
       6               35          0.19774


CLASSIFICATION QUALITY

     Entropy                         0.976


Average Latent Class Probabilities for Most Likely Latent Class Membership (Row)
by Latent Class (Column)

           1        2        3        4        5        6

    1   1.000    0.000    0.000    0.000    0.000    0.000
    2   0.000    0.989    0.000    0.000    0.006    0.005
    3   0.000    0.000    0.993    0.000    0.000    0.006
    4   0.000    0.000    0.000    0.996    0.004    0.000
    5   0.000    0.023    0.000    0.000    0.967    0.009
    6   0.000    0.013    0.002    0.000    0.000    0.985


Classification Probabilities for the Most Likely Latent Class Membership (Column)
by Latent Class (Row)

           1        2        3        4        5        6

    1   1.000    0.000    0.000    0.000    0.000    0.000
    2   0.000    0.967    0.000    0.000    0.022    0.011
    3   0.000    0.000    0.998    0.000    0.000    0.002
    4   0.000    0.000    0.000    1.000    0.000    0.000
    5   0.000    0.006    0.000    0.003    0.991    0.000
    6   0.000    0.006    0.006    0.000    0.010    0.978


Logits for the Classification Probabilities for the Most Likely Latent Class Membership (Column)
by Latent Class (Row)

              1        2        3        4        5        6

    1     13.816    0.000    0.000    0.000    0.000    0.000
    2     -9.306    4.476   -4.365   -9.306    0.681    0.000
    3     -7.775   -7.775    6.039   -7.775   -7.775    0.000
    4      0.000    0.000    0.000   13.815    2.375    0.000
    5     -5.775    2.919   -5.775    2.160    8.031    0.000
    6    -13.794   -5.164   -5.069  -13.794   -4.587    0.000


MODEL RESULTS

                    Estimate

Latent Class 1

 Means
    ARTHRTS            0.296
    CANCER             0.182
    KIDNEY             0.113
    COPD               0.138
    CHD                0.132
    CASTHMA            0.275
    DIABETES           0.180
    BPHIGH             0.357
    HIGHCHOL           0.440
    STROKE             0.097
    CSMOKE             0.302
    OBESITY            0.359

 Variances
    ARTHRTS            0.001
    CANCER             0.000
    KIDNEY             0.000
    COPD               0.000
    CHD                0.000
    CASTHMA            0.000
    DIABETES           0.000
    BPHIGH             0.000
    HIGHCHOL           0.000
    STROKE             0.000
    CSMOKE             0.001
    OBESITY            0.001

Latent Class 2

 Means
    ARTHRTS            0.469
    CANCER             0.258
    KIDNEY             0.173
    COPD               0.242
    CHD                0.247
    CASTHMA            0.296
    DIABETES           0.325
    BPHIGH             0.533
    HIGHCHOL           0.586
    STROKE             0.173
    CSMOKE             0.385
    OBESITY            0.465

 Variances
    ARTHRTS            0.001
    CANCER             0.000
    KIDNEY             0.000
    COPD               0.000
    CHD                0.000
    CASTHMA            0.000
    DIABETES           0.000
    BPHIGH             0.000
    HIGHCHOL           0.000
    STROKE             0.000
    CSMOKE             0.001
    OBESITY            0.001

Latent Class 3

 Means
    ARTHRTS            0.468
    CANCER             0.224
    KIDNEY             0.195
    COPD               0.263
    CHD                0.252
    CASTHMA            0.340
    DIABETES           0.375
    BPHIGH             0.593
    HIGHCHOL           0.567
    STROKE             0.203
    CSMOKE             0.440
    OBESITY            0.570

 Variances
    ARTHRTS            0.001
    CANCER             0.000
    KIDNEY             0.000
    COPD               0.000
    CHD                0.000
    CASTHMA            0.000
    DIABETES           0.000
    BPHIGH             0.000
    HIGHCHOL           0.000
    STROKE             0.000
    CSMOKE             0.001
    OBESITY            0.001

Latent Class 4

 Means
    ARTHRTS            0.388
    CANCER             0.241
    KIDNEY             0.144
    COPD               0.184
    CHD                0.192
    CASTHMA            0.286
    DIABETES           0.243
    BPHIGH             0.447
    HIGHCHOL           0.517
    STROKE             0.135
    CSMOKE             0.318
    OBESITY            0.383

 Variances
    ARTHRTS            0.001
    CANCER             0.000
    KIDNEY             0.000
    COPD               0.000
    CHD                0.000
    CASTHMA            0.000
    DIABETES           0.000
    BPHIGH             0.000
    HIGHCHOL           0.000
    STROKE             0.000
    CSMOKE             0.001
    OBESITY            0.001

Latent Class 5

 Means
    ARTHRTS            0.416
    CANCER             0.223
    KIDNEY             0.164
    COPD               0.221
    CHD                0.220
    CASTHMA            0.297
    DIABETES           0.310
    BPHIGH             0.493
    HIGHCHOL           0.547
    STROKE             0.159
    CSMOKE             0.393
    OBESITY            0.471

 Variances
    ARTHRTS            0.001
    CANCER             0.000
    KIDNEY             0.000
    COPD               0.000
    CHD                0.000
    CASTHMA            0.000
    DIABETES           0.000
    BPHIGH             0.000
    HIGHCHOL           0.000
    STROKE             0.000
    CSMOKE             0.001
    OBESITY            0.001

Latent Class 6

 Means
    ARTHRTS            0.448
    CANCER             0.224
    KIDNEY             0.178
    COPD               0.240
    CHD                0.232
    CASTHMA            0.322
    DIABETES           0.344
    BPHIGH             0.548
    HIGHCHOL           0.554
    STROKE             0.181
    CSMOKE             0.419
    OBESITY            0.526

 Variances
    ARTHRTS            0.001
    CANCER             0.000
    KIDNEY             0.000
    COPD               0.000
    CHD                0.000
    CASTHMA            0.000
    DIABETES           0.000
    BPHIGH             0.000
    HIGHCHOL           0.000
    STROKE             0.000
    CSMOKE             0.001
    OBESITY            0.001

Categorical Latent Variables

 COM#1      ON
    NHB             -247.496
    AGE65           -892.369

 COM#2      ON
    NHB              -14.015
    AGE65             35.461

 COM#3      ON
    NHB                3.281
    AGE65             -4.038

 COM#4      ON
    NHB              -14.780
    AGE65             15.129

 COM#5      ON
    NHB              -13.069
    AGE65            -10.239

 Intercepts
    COM#1            249.111
    COM#2             -6.138
    COM#3             -0.932
    COM#4              0.272
    COM#5              7.907


MODEL COMMAND WITH FINAL ESTIMATES USED AS STARTING VALUES

     %OVERALL%

     com#1 ON nhb*-247.49576;
     com#1 ON age65*-892.36859;
     com#2 ON nhb*-14.01455;
     com#2 ON age65*35.46093;
     com#3 ON nhb*3.28131;
     com#3 ON age65*-4.03798;
     com#4 ON nhb*-14.78037;
     com#4 ON age65*15.12895;
     com#5 ON nhb*-13.06911;
     com#5 ON age65*-10.23866;

     [ com#1*249.11099 ];
     [ com#2*-6.13827 ];
     [ com#3*-0.93239 ];
     [ com#4*0.27199 ];
     [ com#5*7.90732 ];

     %COM#1%

     [ arthrts*0.29636 ];
     [ cancer*0.18241 ];
     [ kidney*0.11313 ];
     [ copd*0.13840 ];
     [ chd*0.13203 ];
     [ casthma*0.27534 ];
     [ diabetes*0.18022 ];
     [ bphigh*0.35742 ];
     [ highchol*0.43962 ];
     [ stroke*0.09690 ];
     [ csmoke*0.30224 ];
     [ obesity*0.35885 ];

     arthrts*0.00056 (13);
     cancer*0.00036 (14);
     kidney*0.00005 (15);
     copd*0.00015 (16);
     chd*0.00014 (17);
     casthma*0.00011 (18);
     diabetes*0.00031 (19);
     bphigh*0.00040 (20);
     highchol*0.00030 (21);
     stroke*0.00007 (22);
     csmoke*0.00056 (23);
     obesity*0.00099 (24);

     %COM#2%

     [ arthrts*0.46936 ];
     [ cancer*0.25790 ];
     [ kidney*0.17304 ];
     [ copd*0.24228 ];
     [ chd*0.24682 ];
     [ casthma*0.29592 ];
     [ diabetes*0.32547 ];
     [ bphigh*0.53273 ];
     [ highchol*0.58590 ];
     [ stroke*0.17328 ];
     [ csmoke*0.38456 ];
     [ obesity*0.46459 ];

     arthrts*0.00056 (13);
     cancer*0.00036 (14);
     kidney*0.00005 (15);
     copd*0.00015 (16);
     chd*0.00014 (17);
     casthma*0.00011 (18);
     diabetes*0.00031 (19);
     bphigh*0.00040 (20);
     highchol*0.00030 (21);
     stroke*0.00007 (22);
     csmoke*0.00056 (23);
     obesity*0.00099 (24);

     %COM#3%

     [ arthrts*0.46829 ];
     [ cancer*0.22415 ];
     [ kidney*0.19545 ];
     [ copd*0.26295 ];
     [ chd*0.25241 ];
     [ casthma*0.34039 ];
     [ diabetes*0.37495 ];
     [ bphigh*0.59254 ];
     [ highchol*0.56679 ];
     [ stroke*0.20270 ];
     [ csmoke*0.43963 ];
     [ obesity*0.57020 ];

     arthrts*0.00056 (13);
     cancer*0.00036 (14);
     kidney*0.00005 (15);
     copd*0.00015 (16);
     chd*0.00014 (17);
     casthma*0.00011 (18);
     diabetes*0.00031 (19);
     bphigh*0.00040 (20);
     highchol*0.00030 (21);
     stroke*0.00007 (22);
     csmoke*0.00056 (23);
     obesity*0.00099 (24);

     %COM#4%

     [ arthrts*0.38832 ];
     [ cancer*0.24111 ];
     [ kidney*0.14380 ];
     [ copd*0.18362 ];
     [ chd*0.19151 ];
     [ casthma*0.28564 ];
     [ diabetes*0.24320 ];
     [ bphigh*0.44689 ];
     [ highchol*0.51750 ];
     [ stroke*0.13456 ];
     [ csmoke*0.31796 ];
     [ obesity*0.38301 ];

     arthrts*0.00056 (13);
     cancer*0.00036 (14);
     kidney*0.00005 (15);
     copd*0.00015 (16);
     chd*0.00014 (17);
     casthma*0.00011 (18);
     diabetes*0.00031 (19);
     bphigh*0.00040 (20);
     highchol*0.00030 (21);
     stroke*0.00007 (22);
     csmoke*0.00056 (23);
     obesity*0.00099 (24);

     %COM#5%

     [ arthrts*0.41649 ];
     [ cancer*0.22295 ];
     [ kidney*0.16395 ];
     [ copd*0.22099 ];
     [ chd*0.21962 ];
     [ casthma*0.29740 ];
     [ diabetes*0.31006 ];
     [ bphigh*0.49257 ];
     [ highchol*0.54703 ];
     [ stroke*0.15906 ];
     [ csmoke*0.39274 ];
     [ obesity*0.47140 ];

     arthrts*0.00056 (13);
     cancer*0.00036 (14);
     kidney*0.00005 (15);
     copd*0.00015 (16);
     chd*0.00014 (17);
     casthma*0.00011 (18);
     diabetes*0.00031 (19);
     bphigh*0.00040 (20);
     highchol*0.00030 (21);
     stroke*0.00007 (22);
     csmoke*0.00056 (23);
     obesity*0.00099 (24);

     %COM#6%

     [ arthrts*0.44752 ];
     [ cancer*0.22437 ];
     [ kidney*0.17780 ];
     [ copd*0.23992 ];
     [ chd*0.23173 ];
     [ casthma*0.32248 ];
     [ diabetes*0.34417 ];
     [ bphigh*0.54801 ];
     [ highchol*0.55434 ];
     [ stroke*0.18095 ];
     [ csmoke*0.41869 ];
     [ obesity*0.52554 ];

     arthrts*0.00056 (13);
     cancer*0.00036 (14);
     kidney*0.00005 (15);
     copd*0.00015 (16);
     chd*0.00014 (17);
     casthma*0.00011 (18);
     diabetes*0.00031 (19);
     bphigh*0.00040 (20);
     highchol*0.00030 (21);
     stroke*0.00007 (22);
     csmoke*0.00056 (23);
     obesity*0.00099 (24);



SAVEDATA INFORMATION

     Class probabilities were not computed.
     No data were saved.


     Beginning Time:  18:03:26
        Ending Time:  18:04:13
       Elapsed Time:  00:00:47



MUTHEN & MUTHEN
3463 Stoner Ave.
Los Angeles, CA  90066

Tel: (310) 391-9971
Fax: (310) 391-8971
Web: www.StatModel.com
Support: Support@StatModel.com

Copyright (c) 1998-2017 Muthen & Muthen
